<?xml version="1.0" encoding="utf-8"?>
<!-- Generator: Adobe Illustrator 23.0.1, SVG Export Plug-In . SVG Version: 6.00 Build 0)  -->
<svg version="1.1" id="Layer_1" xmlns="http://www.w3.org/2000/svg" xmlns:xlink="http://www.w3.org/1999/xlink" x="0px" y="0px"
	 viewBox="0 0 528.13 188.08" style="enable-background:new 0 0 528.13 188.08;" xml:space="preserve">
<style type="text/css">
	.st0{fill-rule:evenodd;clip-rule:evenodd;fill:#001830;}
	.st1{fill-rule:evenodd;clip-rule:evenodd;fill:#F32E49;}
	.st2{fill-rule:evenodd;clip-rule:evenodd;fill:#444343;}
	.st3{fill-rule:evenodd;clip-rule:evenodd;fill:#444444;}
	.st4{fill-rule:evenodd;clip-rule:evenodd;fill:#FFFFFF;}
</style>
<rect x="-922.32" y="331.89" class="st0" width="850.39" height="371.59"/>
<g>
	<path class="st1" d="M40.31,19.32c-11.39,0-20.62,9.23-20.62,20.62v76.56c0,11.39,9.23,20.62,20.62,20.62h90.67
		c8.42,0,15.66-5.05,18.86-12.27c-2.07,0-3.77-0.09-5.12-0.21c-1.47-0.17-2.63-0.4-3.51-0.69c-0.88-0.29-1.49-0.67-1.81-1.12
		c-0.35-0.47-0.52-1-0.52-1.61V73.21c0-2.73-0.26-5.2-0.76-7.43c-0.5-2.25-1.28-4.18-2.32-5.77c-1.04-1.61-2.35-2.85-3.92-3.73
		c-1.57-0.86-3.46-1.31-5.65-1.31c-2.68,0-5.39,1.07-8.12,3.18c-2.75,2.13-5.7,5.2-8.92,9.26v53.82c0,0.6-0.19,1.14-0.55,1.61
		c-0.36,0.45-0.99,0.83-1.87,1.12c-0.88,0.29-2.06,0.52-3.51,0.69c-1.47,0.14-3.28,0.22-5.48,0.22c-2.25,0-4.1-0.09-5.57-0.22
		c-1.45-0.17-2.63-0.4-3.51-0.69c-0.88-0.29-1.5-0.67-1.87-1.12c-0.38-0.47-0.55-1-0.55-1.61V73.21c0-2.73-0.26-5.2-0.78-7.43
		c-0.52-2.25-1.3-4.18-2.33-5.77c-1.04-1.61-2.37-2.85-4.01-3.73c-1.64-0.86-3.56-1.31-5.76-1.31c-2.8,0-5.6,1.07-8.4,3.18
		c-2.8,2.13-5.81,5.2-9.04,9.26v53.82c0,0.6-0.19,1.14-0.55,1.61c-0.36,0.45-0.99,0.83-1.85,1.12c-0.88,0.29-2.06,0.52-3.51,0.69
		c-1.45,0.14-3.28,0.22-5.53,0.22c-2.25,0-4.1-0.09-5.55-0.22c-1.45-0.17-2.63-0.4-3.49-0.69c-0.88-0.29-1.5-0.67-1.87-1.12
		c-0.36-0.47-0.55-1-0.55-1.61V40.04c0-0.6,0.16-1.14,0.47-1.59c0.29-0.45,0.83-0.83,1.62-1.14c0.8-0.29,1.8-0.52,3.04-0.67
		c1.24-0.16,2.8-0.22,4.68-0.22c1.94,0,3.53,0.07,4.8,0.22c1.28,0.16,2.26,0.38,2.96,0.67c0.71,0.31,1.19,0.69,1.5,1.14
		c0.31,0.45,0.45,0.99,0.45,1.59v9.37c4.51-4.74,9-8.3,13.46-10.68c4.48-2.37,9.14-3.56,14.02-3.56c3.34,0,6.36,0.35,9.04,1.02
		c2.66,0.69,5.05,1.68,7.16,2.96s3.91,2.82,5.44,4.6c1.5,1.76,2.78,3.77,3.82,5.96c2.4-2.56,4.75-4.75,7.09-6.6
		c2.3-1.83,4.58-3.34,6.84-4.49c2.25-1.18,4.49-2.02,6.76-2.59c2.25-0.55,4.55-0.85,6.9-0.85c5.34,0,9.85,0.92,13.52,2.73
		c1.83,0.9,3.49,1.97,4.96,3.2v-1.16c0-11.39-9.23-20.62-20.62-20.62H40.31z"/>
	<g>
		<path class="st2" d="M245.8,150.15l6.58-10.34c0.16-0.22,0.24-0.45,0.26-0.6c0.02-0.16-0.05-0.29-0.21-0.38
			c-0.14-0.09-0.38-0.16-0.69-0.19c-0.31-0.03-0.69-0.05-1.18-0.05c-0.47,0-0.81,0.02-1.07,0.03c-0.26,0.03-0.47,0.07-0.6,0.12
			c-0.14,0.07-0.26,0.14-0.35,0.22c-0.07,0.07-0.16,0.16-0.21,0.26l-5.22,8.28l-5.13-8.28c-0.07-0.1-0.16-0.21-0.22-0.29
			c-0.09-0.07-0.21-0.14-0.38-0.19c-0.16-0.05-0.4-0.09-0.69-0.12c-0.29-0.02-0.67-0.03-1.16-0.03c-0.54,0-0.97,0.02-1.3,0.05
			c-0.33,0.03-0.57,0.1-0.73,0.21c-0.16,0.12-0.22,0.24-0.22,0.4c0,0.17,0.07,0.36,0.21,0.57l6.65,10.44l-7.02,10.85
			c-0.16,0.22-0.24,0.41-0.24,0.57c-0.02,0.17,0.07,0.29,0.21,0.38c0.14,0.1,0.36,0.17,0.66,0.22c0.31,0.03,0.73,0.05,1.19,0.05
			s0.85-0.02,1.12-0.03c0.29-0.02,0.52-0.07,0.69-0.12c0.19-0.07,0.31-0.14,0.41-0.22c0.09-0.09,0.16-0.19,0.24-0.31l5.38-8.81
			l5.43,8.81c0.05,0.12,0.14,0.22,0.22,0.31c0.09,0.09,0.22,0.16,0.4,0.22c0.19,0.05,0.41,0.1,0.71,0.12
			c0.28,0.02,0.69,0.03,1.19,0.03c0.52,0,0.93-0.02,1.26-0.05c0.31-0.05,0.57-0.12,0.73-0.22c0.16-0.09,0.24-0.21,0.24-0.38
			c0-0.16-0.07-0.35-0.21-0.57L245.8,150.15z"/>
		<path class="st2" d="M297.77,153.68c-0.22,1.02-0.55,1.94-1,2.75c-0.47,0.83-1.05,1.49-1.8,1.97c-0.74,0.48-1.62,0.73-2.64,0.73
			c-1.12,0-2.19-0.33-3.2-1.04c-1.02-0.71-2.09-1.71-3.21-3.02V146c0.64-0.78,1.26-1.43,1.85-1.97c0.57-0.54,1.12-0.97,1.66-1.3
			c0.54-0.31,1.05-0.55,1.57-0.71s1.04-0.22,1.57-0.22c1.05,0,1.95,0.24,2.66,0.74c0.71,0.48,1.28,1.14,1.71,1.95
			c0.41,0.83,0.73,1.76,0.9,2.82c0.17,1.05,0.26,2.16,0.26,3.28C298.1,151.64,298,152.66,297.77,153.68z M302.09,145.43
			c-0.35-1.47-0.88-2.77-1.59-3.89c-0.74-1.11-1.68-1.99-2.83-2.63c-1.16-0.64-2.56-0.97-4.18-0.97c-0.76,0-1.47,0.09-2.16,0.28
			c-0.67,0.17-1.35,0.43-1.99,0.78c-0.64,0.35-1.28,0.78-1.9,1.3c-0.66,0.54-1.31,1.14-1.99,1.85v-2.83c0-0.14-0.03-0.26-0.09-0.33
			c-0.05-0.09-0.16-0.17-0.29-0.22s-0.31-0.1-0.52-0.14c-0.22-0.02-0.48-0.03-0.81-0.03c-0.31,0-0.57,0.02-0.8,0.03
			c-0.21,0.03-0.38,0.09-0.52,0.16c-0.14,0.07-0.24,0.14-0.29,0.24c-0.03,0.09-0.07,0.21-0.07,0.35v31.78
			c0,0.14,0.03,0.26,0.09,0.36c0.05,0.09,0.16,0.17,0.29,0.24c0.16,0.07,0.36,0.12,0.6,0.16c0.24,0.03,0.55,0.05,0.93,0.05
			s0.71-0.02,0.95-0.05c0.24-0.03,0.45-0.09,0.59-0.16c0.14-0.07,0.24-0.16,0.29-0.26c0.07-0.1,0.1-0.22,0.1-0.36V159.5
			c0.6,0.6,1.16,1.11,1.71,1.56c0.54,0.43,1.07,0.81,1.62,1.09c0.54,0.28,1.09,0.48,1.66,0.64c0.57,0.12,1.19,0.19,1.87,0.19
			c1.57,0,2.97-0.29,4.2-0.88c1.23-0.6,2.26-1.47,3.09-2.56c0.81-1.11,1.45-2.47,1.88-4.04c0.41-1.59,0.64-3.37,0.64-5.38
			C302.6,148.48,302.42,146.92,302.09,145.43z"/>
		<path class="st2" d="M346.58,139.61c-0.02-0.21-0.03-0.38-0.05-0.5c-0.03-0.12-0.07-0.21-0.1-0.29c-0.03-0.07-0.1-0.14-0.21-0.22
			c-0.1-0.09-0.29-0.16-0.55-0.24c-0.26-0.07-0.54-0.16-0.86-0.22c-0.31-0.07-0.6-0.12-0.9-0.14s-0.55-0.03-0.78-0.03
			c-0.52,0-1.04,0.07-1.54,0.21c-0.5,0.12-1,0.36-1.52,0.71c-0.5,0.35-1.05,0.81-1.62,1.42c-0.57,0.59-1.19,1.37-1.83,2.32v-3.25
			c0-0.12-0.03-0.22-0.09-0.31c-0.05-0.1-0.16-0.17-0.28-0.26c-0.12-0.07-0.31-0.12-0.52-0.16c-0.22-0.02-0.5-0.03-0.85-0.03
			c-0.36,0-0.66,0.02-0.88,0.03c-0.21,0.03-0.38,0.09-0.52,0.16c-0.14,0.09-0.24,0.16-0.28,0.26c-0.05,0.09-0.09,0.19-0.09,0.31
			v22.23c0,0.12,0.03,0.24,0.09,0.33c0.05,0.09,0.16,0.17,0.29,0.22c0.16,0.07,0.36,0.12,0.6,0.16c0.24,0.03,0.55,0.05,0.93,0.05
			c0.38,0,0.71-0.02,0.95-0.05c0.24-0.03,0.45-0.09,0.59-0.16c0.14-0.05,0.24-0.14,0.29-0.22c0.07-0.09,0.1-0.21,0.1-0.33v-14.62
			c0.62-0.97,1.19-1.78,1.71-2.44c0.5-0.66,1-1.19,1.47-1.59c0.47-0.4,0.92-0.69,1.35-0.86c0.43-0.17,0.86-0.26,1.31-0.26
			c0.36,0,0.71,0.03,1.04,0.1c0.31,0.07,0.6,0.14,0.86,0.21c0.26,0.07,0.48,0.14,0.69,0.22c0.19,0.09,0.38,0.12,0.52,0.12
			c0.16,0,0.26-0.03,0.35-0.12c0.07-0.09,0.14-0.19,0.19-0.33c0.05-0.14,0.09-0.33,0.1-0.59c0.02-0.24,0.03-0.55,0.03-0.9
			C346.6,140.13,346.58,139.83,346.58,139.61z"/>
		<path class="st2" d="M378.31,148.22c0.03-0.92,0.19-1.81,0.48-2.68c0.28-0.85,0.67-1.61,1.19-2.25c0.52-0.64,1.16-1.16,1.92-1.56
			c0.76-0.38,1.66-0.57,2.68-0.57c1.97,0,3.47,0.62,4.48,1.88c1,1.24,1.49,2.97,1.43,5.17H378.31z M394.35,148.82
			c0-1.5-0.19-2.9-0.55-4.22c-0.38-1.31-0.97-2.45-1.75-3.44c-0.81-0.99-1.81-1.76-3.04-2.35c-1.23-0.57-2.73-0.86-4.48-0.86
			c-1.64,0-3.11,0.29-4.42,0.86c-1.33,0.59-2.47,1.43-3.39,2.52c-0.95,1.09-1.66,2.4-2.16,3.98c-0.5,1.56-0.73,3.32-0.73,5.25
			c0,2.07,0.22,3.87,0.73,5.43c0.48,1.56,1.19,2.85,2.16,3.87c0.95,1.04,2.13,1.81,3.53,2.33s3.04,0.78,4.91,0.78
			c1.07,0,2.07-0.09,3.02-0.28c0.95-0.17,1.8-0.38,2.51-0.59c0.73-0.22,1.31-0.45,1.76-0.69s0.73-0.41,0.81-0.5
			c0.1-0.07,0.17-0.17,0.22-0.26c0.07-0.1,0.1-0.22,0.14-0.35c0.02-0.12,0.03-0.24,0.05-0.4c0.02-0.16,0.03-0.33,0.03-0.54
			c0-0.28-0.02-0.54-0.03-0.73c-0.03-0.21-0.07-0.36-0.12-0.47c-0.05-0.12-0.12-0.19-0.21-0.26c-0.1-0.05-0.21-0.09-0.31-0.09
			c-0.21,0-0.5,0.1-0.9,0.31c-0.38,0.19-0.88,0.41-1.49,0.66c-0.6,0.24-1.33,0.47-2.16,0.67c-0.85,0.19-1.78,0.28-2.85,0.28
			c-1.35,0-2.49-0.19-3.42-0.57c-0.95-0.4-1.69-0.95-2.28-1.69c-0.57-0.73-1-1.59-1.24-2.63c-0.26-1.02-0.38-2.16-0.38-3.44h14.47
			c0.41,0,0.78-0.14,1.09-0.43c0.33-0.28,0.48-0.74,0.48-1.4V148.82z"/>
		<path class="st2" d="M438.35,153.12c-0.33-0.69-0.76-1.31-1.3-1.81c-0.55-0.5-1.16-0.93-1.87-1.28c-0.71-0.36-1.4-0.67-2.11-0.97
			c-0.73-0.28-1.43-0.57-2.13-0.83c-0.69-0.28-1.3-0.57-1.83-0.92c-0.55-0.35-0.99-0.73-1.31-1.19c-0.35-0.43-0.5-0.99-0.5-1.64
			c0-0.48,0.07-0.92,0.26-1.33c0.17-0.41,0.43-0.76,0.76-1.05c0.35-0.31,0.78-0.54,1.31-0.69c0.54-0.17,1.16-0.24,1.87-0.24
			c0.78,0,1.47,0.1,2.07,0.31c0.6,0.19,1.14,0.41,1.59,0.64c0.43,0.24,0.81,0.47,1.09,0.67c0.28,0.19,0.5,0.29,0.66,0.29
			c0.09,0,0.19-0.02,0.26-0.09c0.09-0.05,0.17-0.14,0.22-0.28c0.07-0.14,0.1-0.31,0.12-0.5c0.02-0.21,0.03-0.47,0.03-0.74
			c0-0.26-0.02-0.48-0.03-0.66c-0.02-0.19-0.05-0.35-0.07-0.47c-0.03-0.12-0.07-0.22-0.14-0.33c-0.05-0.1-0.16-0.22-0.33-0.38
			c-0.19-0.16-0.43-0.33-0.78-0.54c-0.35-0.19-0.74-0.38-1.23-0.55c-0.48-0.17-1.02-0.31-1.61-0.43c-0.6-0.12-1.19-0.17-1.78-0.17
			c-1.37,0-2.54,0.19-3.58,0.55c-1.02,0.38-1.85,0.86-2.54,1.49c-0.67,0.62-1.18,1.33-1.52,2.16c-0.35,0.81-0.5,1.66-0.5,2.56
			c0,1.02,0.16,1.88,0.48,2.61c0.35,0.73,0.78,1.35,1.33,1.87c0.54,0.52,1.16,0.97,1.85,1.33s1.4,0.69,2.13,0.97
			c0.71,0.29,1.42,0.57,2.09,0.83c0.69,0.26,1.3,0.55,1.85,0.9c0.54,0.35,0.99,0.73,1.31,1.16c0.33,0.45,0.5,0.99,0.5,1.62
			c0,0.64-0.12,1.21-0.35,1.68c-0.24,0.48-0.57,0.86-1,1.18c-0.43,0.31-0.93,0.54-1.5,0.69c-0.59,0.16-1.24,0.22-1.95,0.22
			c-0.97,0-1.81-0.09-2.56-0.29c-0.74-0.21-1.37-0.41-1.9-0.66c-0.55-0.24-1-0.47-1.37-0.66c-0.38-0.21-0.66-0.31-0.83-0.31
			c-0.12,0-0.24,0.03-0.33,0.09c-0.1,0.07-0.17,0.16-0.22,0.28c-0.05,0.14-0.09,0.29-0.12,0.5c-0.05,0.21-0.05,0.45-0.05,0.76
			c0,0.5,0.03,0.88,0.12,1.16c0.07,0.29,0.22,0.5,0.4,0.66s0.48,0.33,0.88,0.52c0.4,0.21,0.9,0.38,1.47,0.57
			c0.59,0.17,1.24,0.31,1.97,0.43c0.73,0.12,1.5,0.17,2.3,0.17c1.31,0,2.51-0.16,3.59-0.48c1.11-0.31,2.04-0.8,2.83-1.42
			c0.78-0.6,1.4-1.38,1.81-2.3c0.43-0.9,0.66-1.95,0.66-3.11C438.86,154.68,438.68,153.85,438.35,153.12z"/>
		<path class="st2" d="M482.53,153.12c-0.35-0.69-0.76-1.31-1.31-1.81c-0.54-0.5-1.16-0.93-1.87-1.28c-0.69-0.36-1.4-0.67-2.11-0.97
			c-0.73-0.28-1.42-0.57-2.11-0.83c-0.69-0.28-1.31-0.57-1.85-0.92c-0.54-0.35-0.97-0.73-1.31-1.19c-0.35-0.43-0.5-0.99-0.5-1.64
			c0-0.48,0.09-0.92,0.26-1.33c0.17-0.41,0.43-0.76,0.78-1.05c0.35-0.31,0.76-0.54,1.31-0.69c0.52-0.17,1.14-0.24,1.85-0.24
			c0.78,0,1.47,0.1,2.09,0.31c0.59,0.19,1.12,0.41,1.57,0.64c0.45,0.24,0.81,0.47,1.09,0.67c0.29,0.19,0.5,0.29,0.66,0.29
			c0.1,0,0.19-0.02,0.28-0.09c0.07-0.05,0.16-0.14,0.22-0.28c0.05-0.14,0.09-0.31,0.1-0.5c0.03-0.21,0.05-0.47,0.05-0.74
			c0-0.26-0.02-0.48-0.05-0.66c-0.02-0.19-0.03-0.35-0.07-0.47c-0.02-0.12-0.07-0.22-0.12-0.33c-0.07-0.1-0.17-0.22-0.35-0.38
			c-0.17-0.16-0.43-0.33-0.76-0.54c-0.35-0.19-0.76-0.38-1.24-0.55c-0.48-0.17-1-0.31-1.61-0.43c-0.59-0.12-1.19-0.17-1.78-0.17
			c-1.37,0-2.54,0.19-3.56,0.55c-1.02,0.38-1.87,0.86-2.54,1.49c-0.69,0.62-1.19,1.33-1.54,2.16c-0.33,0.81-0.5,1.66-0.5,2.56
			c0,1.02,0.17,1.88,0.5,2.61c0.33,0.73,0.76,1.35,1.31,1.87c0.55,0.52,1.18,0.97,1.87,1.33c0.67,0.36,1.38,0.69,2.11,0.97
			c0.73,0.29,1.42,0.57,2.11,0.83c0.67,0.26,1.3,0.55,1.83,0.9c0.55,0.35,0.99,0.73,1.31,1.16c0.35,0.45,0.5,0.99,0.5,1.62
			c0,0.64-0.12,1.21-0.35,1.68c-0.22,0.48-0.55,0.86-0.99,1.18s-0.93,0.54-1.52,0.69c-0.59,0.16-1.23,0.22-1.95,0.22
			c-0.97,0-1.8-0.09-2.54-0.29c-0.74-0.21-1.38-0.41-1.92-0.66c-0.54-0.24-1-0.47-1.37-0.66c-0.36-0.21-0.64-0.31-0.83-0.31
			c-0.12,0-0.22,0.03-0.31,0.09c-0.1,0.07-0.17,0.16-0.22,0.28c-0.07,0.14-0.1,0.29-0.14,0.5c-0.03,0.21-0.05,0.45-0.05,0.76
			c0,0.5,0.05,0.88,0.12,1.16c0.09,0.29,0.22,0.5,0.4,0.66c0.19,0.16,0.48,0.33,0.88,0.52c0.41,0.21,0.9,0.38,1.49,0.57
			c0.57,0.17,1.23,0.31,1.95,0.43c0.74,0.12,1.5,0.17,2.32,0.17c1.3,0,2.51-0.16,3.59-0.48c1.09-0.31,2.04-0.8,2.82-1.42
			c0.8-0.6,1.4-1.38,1.83-2.3c0.41-0.9,0.64-1.95,0.64-3.11C483.01,154.68,482.84,153.85,482.53,153.12z"/>
	</g>
	<path class="st2" d="M205.74,97.59c-0.83,3.34-2.14,6.22-3.92,8.62c-1.76,2.42-4.03,4.29-6.79,5.62c-2.77,1.33-6.03,2-9.8,2
		c-4.11,0-7.55-0.73-10.32-2.19c-2.77-1.45-4.98-3.42-6.62-5.93c-1.64-2.49-2.82-5.39-3.53-8.73c-0.71-3.34-1.05-6.9-1.05-10.7
		c0-3.96,0.43-7.6,1.3-10.94c0.86-3.34,2.18-6.22,3.96-8.66c1.76-2.44,4.03-4.32,6.76-5.67c2.75-1.33,6.01-1.99,9.83-1.99
		c4.11,0,7.55,0.73,10.32,2.19s4.96,3.46,6.58,5.96c1.61,2.51,2.78,5.44,3.47,8.78c0.71,3.34,1.05,6.86,1.05,10.61
		C206.98,90.59,206.57,94.26,205.74,97.59z M218.22,70.01c-1.43-4.65-3.56-8.59-6.43-11.84c-2.85-3.25-6.41-5.72-10.68-7.41
		c-4.29-1.71-9.3-2.56-15.05-2.56c-5.98,0-11.18,0.95-15.64,2.87c-4.46,1.9-8.17,4.58-11.16,8.04c-2.99,3.46-5.22,7.57-6.69,12.34
		c-1.47,4.77-2.21,9.97-2.21,15.64c0,5.88,0.69,11.15,2.09,15.78c1.4,4.65,3.53,8.59,6.38,11.84c2.85,3.23,6.43,5.72,10.7,7.41
		c4.29,1.69,9.3,2.56,15.07,2.56c5.89,0,11.1-0.97,15.59-2.9c4.48-1.92,8.21-4.61,11.2-8.07c2.97-3.46,5.22-7.57,6.72-12.34
		s2.26-9.99,2.26-15.66C220.36,79.88,219.64,74.64,218.22,70.01z M293.37,78.96c0-4.96-0.43-9.23-1.28-12.77
		c-0.86-3.54-2.26-6.64-4.22-9.3c-1.95-2.63-4.51-4.75-7.67-6.33s-7.07-2.37-11.7-2.37c-3.98,0-7.9,0.99-11.77,2.97
		c-3.89,1.99-7.79,5.12-11.7,9.38v-9.3c0-0.41-0.09-0.76-0.26-1.05c-0.19-0.29-0.48-0.55-0.9-0.78c-0.41-0.24-0.99-0.4-1.73-0.48
		c-0.74-0.07-1.69-0.1-2.82-0.1c-1.19,0-2.14,0.03-2.87,0.1c-0.71,0.09-1.31,0.24-1.76,0.48c-0.47,0.22-0.78,0.48-0.93,0.78
		c-0.16,0.29-0.22,0.64-0.22,1.05v70.36c0,0.41,0.09,0.76,0.26,1.05c0.19,0.29,0.52,0.54,1.02,0.74c0.48,0.21,1.14,0.36,1.97,0.47
		c0.81,0.1,1.85,0.16,3.08,0.16c1.28,0,2.33-0.05,3.16-0.16c0.81-0.1,1.45-0.26,1.94-0.47c0.45-0.21,0.8-0.45,1-0.74
		c0.19-0.28,0.29-0.64,0.29-1.05V72.53c3.51-4.42,6.84-7.78,10.04-10.08c3.2-2.28,6.38-3.42,9.59-3.42c2.45,0,4.63,0.47,6.52,1.4
		c1.87,0.93,3.4,2.28,4.6,4.06c1.18,1.76,2.09,3.87,2.71,6.33c0.6,2.45,0.92,5.67,0.92,9.66v41.13c0,0.41,0.1,0.78,0.31,1.05
		c0.19,0.29,0.54,0.54,1,0.74c0.45,0.21,1.11,0.36,1.94,0.47c0.81,0.1,1.87,0.16,3.16,0.16c1.23,0,2.25-0.05,3.08-0.16
		c0.81-0.1,1.47-0.26,1.94-0.47c0.45-0.21,0.8-0.45,1-0.73c0.19-0.28,0.31-0.64,0.31-1.05V78.96z M383.31,113.91
		c-0.1-0.64-0.22-1.12-0.36-1.49c-0.14-0.36-0.31-0.62-0.55-0.76c-0.24-0.14-0.48-0.21-0.73-0.21c-0.43,0-0.9,0.12-1.42,0.36
		c-0.54,0.24-1.18,0.48-1.9,0.74c-0.73,0.28-1.57,0.52-2.51,0.76c-0.95,0.24-2.02,0.35-3.23,0.35c-3.72,0-6.31-1.24-7.74-3.73
		s-2.16-6.19-2.16-11.08V59.29h18.16c0.78,0,1.4-0.43,1.88-1.3c0.47-0.85,0.71-2.25,0.71-4.17c0-1.02-0.07-1.88-0.16-2.58
		c-0.1-0.69-0.28-1.26-0.52-1.73c-0.24-0.45-0.52-0.78-0.83-0.97c-0.31-0.17-0.67-0.28-1.09-0.28h-18.16v-16.9
		c0-0.36-0.1-0.71-0.31-1.02c-0.21-0.33-0.55-0.59-1.02-0.83c-0.48-0.24-1.14-0.41-1.97-0.52c-0.83-0.09-1.92-0.16-3.21-0.16
		c-1.26,0-2.32,0.07-3.15,0.16c-0.85,0.1-1.5,0.28-2,0.52c-0.5,0.24-0.85,0.5-1.02,0.83c-0.19,0.31-0.28,0.66-0.28,1.02v16.9h-9.7
		c-0.41,0-0.78,0.1-1.12,0.28c-0.35,0.19-0.6,0.52-0.81,0.97c-0.21,0.47-0.38,1.04-0.5,1.73c-0.12,0.69-0.19,1.56-0.19,2.58
		c0,1.92,0.22,3.32,0.69,4.17c0.47,0.86,1.09,1.3,1.87,1.3h9.76v41.39c0,4.08,0.38,7.64,1.14,10.66c0.76,3.01,1.97,5.51,3.65,7.47
		c1.68,1.97,3.82,3.44,6.45,4.41c2.61,0.97,5.77,1.45,9.44,1.45c1.21,0,2.4-0.09,3.61-0.22c1.21-0.17,2.35-0.36,3.42-0.59
		c1.07-0.24,2.04-0.54,2.87-0.92c0.83-0.36,1.47-0.74,1.88-1.16s0.74-1.05,0.95-1.95c0.21-0.88,0.31-2.07,0.31-3.59
		C383.46,115.33,383.39,114.53,383.31,113.91z M446.01,97.59c-0.83,3.34-2.14,6.22-3.92,8.62c-1.76,2.42-4.03,4.29-6.79,5.62
		c-2.77,1.33-6.03,2-9.78,2c-4.13,0-7.57-0.73-10.34-2.19c-2.77-1.45-4.98-3.42-6.62-5.93c-1.64-2.49-2.82-5.39-3.51-8.73
		c-0.71-3.34-1.05-6.9-1.05-10.7c0-3.96,0.41-7.6,1.28-10.94c0.86-3.34,2.18-6.22,3.96-8.66c1.76-2.44,4.03-4.32,6.77-5.67
		c2.73-1.33,6-1.99,9.82-1.99c4.11,0,7.55,0.73,10.32,2.19c2.77,1.47,4.98,3.46,6.58,5.96c1.62,2.51,2.78,5.44,3.49,8.78
		c0.69,3.34,1.05,6.86,1.05,10.61C447.27,90.59,446.86,94.26,446.01,97.59z M458.49,70.01c-1.43-4.65-3.56-8.59-6.41-11.84
		c-2.87-3.25-6.43-5.72-10.7-7.41c-4.27-1.71-9.3-2.56-15.05-2.56c-5.96,0-11.18,0.95-15.64,2.87c-4.46,1.9-8.17,4.58-11.16,8.04
		c-2.97,3.46-5.2,7.57-6.67,12.34c-1.49,4.77-2.23,9.97-2.23,15.64c0,5.88,0.69,11.15,2.11,15.78c1.38,4.65,3.51,8.59,6.36,11.84
		c2.87,3.23,6.43,5.72,10.72,7.41c4.27,1.69,9.3,2.56,15.05,2.56c5.91,0,11.1-0.97,15.59-2.9c4.48-1.92,8.21-4.61,11.2-8.07
		c2.97-3.46,5.22-7.57,6.72-12.34s2.26-9.99,2.26-15.66C460.63,79.88,459.92,74.64,458.49,70.01z M510.36,53.44
		c-0.03-0.71-0.09-1.23-0.17-1.59c-0.07-0.36-0.16-0.66-0.26-0.9c-0.1-0.22-0.31-0.47-0.62-0.73s-0.85-0.52-1.59-0.78
		c-0.76-0.26-1.59-0.5-2.52-0.71s-1.81-0.35-2.68-0.41c-0.85-0.09-1.61-0.12-2.28-0.12c-1.5,0-2.99,0.19-4.46,0.55
		c-1.47,0.38-2.96,1.07-4.46,2.06c-1.5,0.99-3.09,2.32-4.77,4.04c-1.68,1.71-3.47,3.92-5.39,6.64V51.26c0-0.41-0.09-0.76-0.26-1.05
		c-0.19-0.29-0.48-0.55-0.88-0.78c-0.43-0.24-1-0.4-1.75-0.48c-0.74-0.07-1.68-0.1-2.82-0.1c-1.19,0-2.14,0.03-2.87,0.1
		c-0.71,0.09-1.31,0.24-1.76,0.48c-0.47,0.22-0.76,0.48-0.93,0.78c-0.16,0.29-0.22,0.64-0.22,1.05v70.36c0,0.41,0.09,0.76,0.28,1.05
		c0.17,0.29,0.5,0.54,1,0.74c0.48,0.21,1.14,0.36,1.97,0.47c0.81,0.1,1.85,0.16,3.08,0.16c1.28,0,2.33-0.05,3.16-0.16
		c0.81-0.1,1.47-0.26,1.94-0.47c0.45-0.21,0.8-0.45,1-0.74c0.19-0.29,0.31-0.64,0.31-1.05V75.33c1.8-2.8,3.46-5.17,4.96-7.09
		c1.49-1.94,2.94-3.49,4.3-4.67c1.37-1.18,2.68-2,3.92-2.51c1.23-0.52,2.51-0.78,3.79-0.78c1.09,0,2.09,0.12,3.02,0.31
		c0.93,0.21,1.78,0.43,2.54,0.66c0.74,0.24,1.42,0.47,2,0.71c0.6,0.24,1.11,0.35,1.52,0.35c0.4,0,0.73-0.1,0.97-0.35
		c0.22-0.24,0.41-0.57,0.59-1.02c0.14-0.43,0.24-1.04,0.29-1.81c0.05-0.78,0.09-1.73,0.09-2.87
		C510.39,55.08,510.37,54.13,510.36,53.44z M324.92,30.47c-1.12-1.07-3.23-1.61-6.29-1.61c-3.13,0-5.27,0.55-6.43,1.64
		c-1.18,1.09-1.75,3.15-1.75,6.17c0,2.97,0.57,4.99,1.69,6.05c1.14,1.07,3.23,1.61,6.31,1.61c3.11,0,5.27-0.55,6.43-1.64
		c1.16-1.09,1.75-3.15,1.75-6.17C326.64,33.54,326.07,31.52,324.92,30.47z M324.7,50.26c0-0.36-0.12-0.71-0.31-1.04
		c-0.22-0.31-0.57-0.57-1.04-0.78c-0.47-0.21-1.12-0.38-1.95-0.48c-0.85-0.09-1.92-0.16-3.21-0.16c-1.26,0-2.3,0.07-3.13,0.16
		c-0.85,0.1-1.52,0.28-2,0.48c-0.5,0.21-0.85,0.47-1.02,0.78c-0.19,0.33-0.28,0.67-0.28,1.04v71.97c0,0.43,0.09,0.78,0.28,1.07
		c0.17,0.29,0.52,0.55,1.02,0.76c0.48,0.21,1.16,0.36,2,0.47c0.83,0.1,1.87,0.16,3.13,0.16c1.3,0,2.37-0.05,3.21-0.16
		c0.83-0.1,1.49-0.26,1.95-0.47s0.81-0.47,1.04-0.76c0.19-0.29,0.31-0.64,0.31-1.07V50.26z"/>
	<path class="st2" d="M245.8,150.15l6.58-10.34c0.16-0.22,0.24-0.45,0.26-0.6c0.02-0.16-0.05-0.29-0.21-0.38
		c-0.14-0.09-0.38-0.16-0.69-0.19c-0.31-0.03-0.69-0.05-1.18-0.05c-0.47,0-0.81,0.02-1.07,0.03c-0.26,0.03-0.47,0.07-0.6,0.12
		c-0.14,0.07-0.26,0.14-0.35,0.22c-0.07,0.07-0.16,0.16-0.21,0.26l-5.22,8.28l-5.13-8.28c-0.07-0.1-0.16-0.21-0.22-0.29
		c-0.09-0.07-0.21-0.14-0.38-0.19c-0.16-0.05-0.4-0.09-0.69-0.12c-0.29-0.02-0.67-0.03-1.16-0.03c-0.54,0-0.97,0.02-1.3,0.05
		c-0.33,0.03-0.57,0.1-0.73,0.21c-0.16,0.12-0.22,0.24-0.22,0.4c0,0.17,0.07,0.36,0.21,0.57l6.65,10.44l-7.02,10.85
		c-0.16,0.22-0.24,0.41-0.24,0.57c-0.02,0.17,0.07,0.29,0.21,0.38c0.14,0.1,0.36,0.17,0.66,0.22c0.31,0.03,0.73,0.05,1.19,0.05
		s0.85-0.02,1.12-0.03c0.29-0.02,0.52-0.07,0.69-0.12c0.19-0.07,0.31-0.14,0.41-0.22c0.09-0.09,0.16-0.19,0.24-0.31l5.38-8.81
		l5.43,8.81c0.05,0.12,0.14,0.22,0.22,0.31c0.09,0.09,0.22,0.16,0.4,0.22c0.19,0.05,0.41,0.1,0.71,0.12
		c0.28,0.02,0.69,0.03,1.19,0.03c0.52,0,0.93-0.02,1.26-0.05c0.31-0.05,0.57-0.12,0.73-0.22c0.16-0.09,0.24-0.21,0.24-0.38
		c0-0.16-0.07-0.35-0.21-0.57L245.8,150.15z M297.77,153.68c-0.22,1.02-0.55,1.94-1,2.75c-0.47,0.83-1.05,1.49-1.8,1.97
		c-0.74,0.48-1.62,0.73-2.64,0.73c-1.12,0-2.19-0.33-3.2-1.04c-1.02-0.71-2.09-1.71-3.21-3.02V146c0.64-0.78,1.26-1.43,1.85-1.97
		c0.57-0.54,1.12-0.97,1.66-1.3c0.54-0.31,1.05-0.55,1.57-0.71s1.04-0.22,1.57-0.22c1.05,0,1.95,0.24,2.66,0.74
		c0.71,0.48,1.28,1.14,1.71,1.95c0.41,0.83,0.73,1.76,0.9,2.82c0.17,1.05,0.26,2.16,0.26,3.28
		C298.1,151.64,298,152.66,297.77,153.68z M302.09,145.43c-0.35-1.47-0.88-2.77-1.59-3.89c-0.74-1.11-1.68-1.99-2.83-2.63
		c-1.16-0.64-2.56-0.97-4.18-0.97c-0.76,0-1.47,0.09-2.16,0.28c-0.67,0.17-1.35,0.43-1.99,0.78c-0.64,0.35-1.28,0.78-1.9,1.3
		c-0.66,0.54-1.31,1.14-1.99,1.85v-2.83c0-0.14-0.03-0.26-0.09-0.33c-0.05-0.09-0.16-0.17-0.29-0.22s-0.31-0.1-0.52-0.14
		c-0.22-0.02-0.48-0.03-0.81-0.03c-0.31,0-0.57,0.02-0.8,0.03c-0.21,0.03-0.38,0.09-0.52,0.16c-0.14,0.07-0.24,0.14-0.29,0.24
		c-0.03,0.09-0.07,0.21-0.07,0.35v31.78c0,0.14,0.03,0.26,0.09,0.36c0.05,0.09,0.16,0.17,0.29,0.24c0.16,0.07,0.36,0.12,0.6,0.16
		c0.24,0.03,0.55,0.05,0.93,0.05s0.71-0.02,0.95-0.05c0.24-0.03,0.45-0.09,0.59-0.16c0.14-0.07,0.24-0.16,0.29-0.26
		c0.07-0.1,0.1-0.22,0.1-0.36V159.5c0.6,0.6,1.16,1.11,1.71,1.56c0.54,0.43,1.07,0.81,1.62,1.09c0.54,0.28,1.09,0.48,1.66,0.64
		c0.57,0.12,1.19,0.19,1.87,0.19c1.57,0,2.97-0.29,4.2-0.88c1.23-0.6,2.26-1.47,3.09-2.56c0.81-1.11,1.45-2.47,1.88-4.04
		c0.41-1.59,0.64-3.37,0.64-5.38C302.6,148.48,302.42,146.92,302.09,145.43z M346.58,139.61c-0.02-0.21-0.03-0.38-0.05-0.5
		c-0.03-0.12-0.07-0.21-0.1-0.29c-0.03-0.07-0.1-0.14-0.21-0.22c-0.1-0.09-0.29-0.16-0.55-0.24c-0.26-0.07-0.54-0.16-0.86-0.22
		c-0.31-0.07-0.6-0.12-0.9-0.14s-0.55-0.03-0.78-0.03c-0.52,0-1.04,0.07-1.54,0.21c-0.5,0.12-1,0.36-1.52,0.71
		c-0.5,0.35-1.05,0.81-1.62,1.42c-0.57,0.59-1.19,1.37-1.83,2.32v-3.25c0-0.12-0.03-0.22-0.09-0.31c-0.05-0.1-0.16-0.17-0.28-0.26
		c-0.12-0.07-0.31-0.12-0.52-0.16c-0.22-0.02-0.5-0.03-0.85-0.03c-0.36,0-0.66,0.02-0.88,0.03c-0.21,0.03-0.38,0.09-0.52,0.16
		c-0.14,0.09-0.24,0.16-0.28,0.26c-0.05,0.09-0.09,0.19-0.09,0.31v22.23c0,0.12,0.03,0.24,0.09,0.33c0.05,0.09,0.16,0.17,0.29,0.22
		c0.16,0.07,0.36,0.12,0.6,0.16c0.24,0.03,0.55,0.05,0.93,0.05c0.38,0,0.71-0.02,0.95-0.05c0.24-0.03,0.45-0.09,0.59-0.16
		c0.14-0.05,0.24-0.14,0.29-0.22c0.07-0.09,0.1-0.21,0.1-0.33v-14.62c0.62-0.97,1.19-1.78,1.71-2.44c0.5-0.66,1-1.19,1.47-1.59
		c0.47-0.4,0.92-0.69,1.35-0.86c0.43-0.17,0.86-0.26,1.31-0.26c0.36,0,0.71,0.03,1.04,0.1c0.31,0.07,0.6,0.14,0.86,0.21
		c0.26,0.07,0.48,0.14,0.69,0.22c0.19,0.09,0.38,0.12,0.52,0.12c0.16,0,0.26-0.03,0.35-0.12c0.07-0.09,0.14-0.19,0.19-0.33
		c0.05-0.14,0.09-0.33,0.1-0.59c0.02-0.24,0.03-0.55,0.03-0.9C346.6,140.13,346.58,139.83,346.58,139.61z M378.31,148.22
		c0.03-0.92,0.19-1.81,0.48-2.68c0.28-0.85,0.67-1.61,1.19-2.25c0.52-0.64,1.16-1.16,1.92-1.56c0.76-0.38,1.66-0.57,2.68-0.57
		c1.97,0,3.47,0.62,4.48,1.88c1,1.24,1.49,2.97,1.43,5.17H378.31z M394.35,148.82c0-1.5-0.19-2.9-0.55-4.22
		c-0.38-1.31-0.97-2.45-1.75-3.44c-0.81-0.99-1.81-1.76-3.04-2.35c-1.23-0.57-2.73-0.86-4.48-0.86c-1.64,0-3.11,0.29-4.42,0.86
		c-1.33,0.59-2.47,1.43-3.39,2.52c-0.95,1.09-1.66,2.4-2.16,3.98c-0.5,1.56-0.73,3.32-0.73,5.25c0,2.07,0.22,3.87,0.73,5.43
		c0.48,1.56,1.19,2.85,2.16,3.87c0.95,1.04,2.13,1.81,3.53,2.33s3.04,0.78,4.91,0.78c1.07,0,2.07-0.09,3.02-0.28
		c0.95-0.17,1.8-0.38,2.51-0.59c0.73-0.22,1.31-0.45,1.76-0.69s0.73-0.41,0.81-0.5c0.1-0.07,0.17-0.17,0.22-0.26
		c0.07-0.1,0.1-0.22,0.14-0.35c0.02-0.12,0.03-0.24,0.05-0.4c0.02-0.16,0.03-0.33,0.03-0.54c0-0.28-0.02-0.54-0.03-0.73
		c-0.03-0.21-0.07-0.36-0.12-0.47c-0.05-0.12-0.12-0.19-0.21-0.26c-0.1-0.05-0.21-0.09-0.31-0.09c-0.21,0-0.5,0.1-0.9,0.31
		c-0.38,0.19-0.88,0.41-1.49,0.66c-0.6,0.24-1.33,0.47-2.16,0.67c-0.85,0.19-1.78,0.28-2.85,0.28c-1.35,0-2.49-0.19-3.42-0.57
		c-0.95-0.4-1.69-0.95-2.28-1.69c-0.57-0.73-1-1.59-1.24-2.63c-0.26-1.02-0.38-2.16-0.38-3.44h14.47c0.41,0,0.78-0.14,1.09-0.43
		c0.33-0.28,0.48-0.74,0.48-1.4V148.82z M438.35,153.12c-0.33-0.69-0.76-1.31-1.3-1.81c-0.55-0.5-1.16-0.93-1.87-1.28
		c-0.71-0.36-1.4-0.67-2.11-0.97c-0.73-0.28-1.43-0.57-2.13-0.83c-0.69-0.28-1.3-0.57-1.83-0.92c-0.55-0.35-0.99-0.73-1.31-1.19
		c-0.35-0.43-0.5-0.99-0.5-1.64c0-0.48,0.07-0.92,0.26-1.33c0.17-0.41,0.43-0.76,0.76-1.05c0.35-0.31,0.78-0.54,1.31-0.69
		c0.54-0.17,1.16-0.24,1.87-0.24c0.78,0,1.47,0.1,2.07,0.31c0.6,0.19,1.14,0.41,1.59,0.64c0.43,0.24,0.81,0.47,1.09,0.67
		c0.28,0.19,0.5,0.29,0.66,0.29c0.09,0,0.19-0.02,0.26-0.09c0.09-0.05,0.17-0.14,0.22-0.28c0.07-0.14,0.1-0.31,0.12-0.5
		c0.02-0.21,0.03-0.47,0.03-0.74c0-0.26-0.02-0.48-0.03-0.66c-0.02-0.19-0.05-0.35-0.07-0.47c-0.03-0.12-0.07-0.22-0.14-0.33
		c-0.05-0.1-0.16-0.22-0.33-0.38c-0.19-0.16-0.43-0.33-0.78-0.54c-0.35-0.19-0.74-0.38-1.23-0.55c-0.48-0.17-1.02-0.31-1.61-0.43
		c-0.6-0.12-1.19-0.17-1.78-0.17c-1.37,0-2.54,0.19-3.58,0.55c-1.02,0.38-1.85,0.86-2.54,1.49c-0.67,0.62-1.18,1.33-1.52,2.16
		c-0.35,0.81-0.5,1.66-0.5,2.56c0,1.02,0.16,1.88,0.48,2.61c0.35,0.73,0.78,1.35,1.33,1.87c0.54,0.52,1.16,0.97,1.85,1.33
		s1.4,0.69,2.13,0.97c0.71,0.29,1.42,0.57,2.09,0.83c0.69,0.26,1.3,0.55,1.85,0.9c0.54,0.35,0.99,0.73,1.31,1.16
		c0.33,0.45,0.5,0.99,0.5,1.62c0,0.64-0.12,1.21-0.35,1.68c-0.24,0.48-0.57,0.86-1,1.18c-0.43,0.31-0.93,0.54-1.5,0.69
		c-0.59,0.16-1.24,0.22-1.95,0.22c-0.97,0-1.81-0.09-2.56-0.29c-0.74-0.21-1.37-0.41-1.9-0.66c-0.55-0.24-1-0.47-1.37-0.66
		c-0.38-0.21-0.66-0.31-0.83-0.31c-0.12,0-0.24,0.03-0.33,0.09c-0.1,0.07-0.17,0.16-0.22,0.28c-0.05,0.14-0.09,0.29-0.12,0.5
		c-0.05,0.21-0.05,0.45-0.05,0.76c0,0.5,0.03,0.88,0.12,1.16c0.07,0.29,0.22,0.5,0.4,0.66s0.48,0.33,0.88,0.52
		c0.4,0.21,0.9,0.38,1.47,0.57c0.59,0.17,1.24,0.31,1.97,0.43c0.73,0.12,1.5,0.17,2.3,0.17c1.31,0,2.51-0.16,3.59-0.48
		c1.11-0.31,2.04-0.8,2.83-1.42c0.78-0.6,1.4-1.38,1.81-2.3c0.43-0.9,0.66-1.95,0.66-3.11
		C438.86,154.68,438.68,153.85,438.35,153.12z M482.53,153.12c-0.35-0.69-0.76-1.31-1.31-1.81c-0.54-0.5-1.16-0.93-1.87-1.28
		c-0.69-0.36-1.4-0.67-2.11-0.97c-0.73-0.28-1.42-0.57-2.11-0.83c-0.69-0.28-1.31-0.57-1.85-0.92c-0.54-0.35-0.97-0.73-1.31-1.19
		c-0.35-0.43-0.5-0.99-0.5-1.64c0-0.48,0.09-0.92,0.26-1.33c0.17-0.41,0.43-0.76,0.78-1.05c0.35-0.31,0.76-0.54,1.31-0.69
		c0.52-0.17,1.14-0.24,1.85-0.24c0.78,0,1.47,0.1,2.09,0.31c0.59,0.19,1.12,0.41,1.57,0.64c0.45,0.24,0.81,0.47,1.09,0.67
		c0.29,0.19,0.5,0.29,0.66,0.29c0.1,0,0.19-0.02,0.28-0.09c0.07-0.05,0.16-0.14,0.22-0.28c0.05-0.14,0.09-0.31,0.1-0.5
		c0.03-0.21,0.05-0.47,0.05-0.74c0-0.26-0.02-0.48-0.05-0.66c-0.02-0.19-0.03-0.35-0.07-0.47c-0.02-0.12-0.07-0.22-0.12-0.33
		c-0.07-0.1-0.17-0.22-0.35-0.38c-0.17-0.16-0.43-0.33-0.76-0.54c-0.35-0.19-0.76-0.38-1.24-0.55c-0.48-0.17-1-0.31-1.61-0.43
		c-0.59-0.12-1.19-0.17-1.78-0.17c-1.37,0-2.54,0.19-3.56,0.55c-1.02,0.38-1.87,0.86-2.54,1.49c-0.69,0.62-1.19,1.33-1.54,2.16
		c-0.33,0.81-0.5,1.66-0.5,2.56c0,1.02,0.17,1.88,0.5,2.61c0.33,0.73,0.76,1.35,1.31,1.87c0.55,0.52,1.18,0.97,1.87,1.33
		c0.67,0.36,1.38,0.69,2.11,0.97c0.73,0.29,1.42,0.57,2.11,0.83c0.67,0.26,1.3,0.55,1.83,0.9c0.55,0.35,0.99,0.73,1.31,1.16
		c0.35,0.45,0.5,0.99,0.5,1.62c0,0.64-0.12,1.21-0.35,1.68c-0.22,0.48-0.55,0.86-0.99,1.18s-0.93,0.54-1.52,0.69
		c-0.59,0.16-1.23,0.22-1.95,0.22c-0.97,0-1.8-0.09-2.54-0.29c-0.74-0.21-1.38-0.41-1.92-0.66c-0.54-0.24-1-0.47-1.37-0.66
		c-0.36-0.21-0.64-0.31-0.83-0.31c-0.12,0-0.22,0.03-0.31,0.09c-0.1,0.07-0.17,0.16-0.22,0.28c-0.07,0.14-0.1,0.29-0.14,0.5
		c-0.03,0.21-0.05,0.45-0.05,0.76c0,0.5,0.05,0.88,0.12,1.16c0.09,0.29,0.22,0.5,0.4,0.66c0.19,0.16,0.48,0.33,0.88,0.52
		c0.41,0.21,0.9,0.38,1.49,0.57c0.57,0.17,1.23,0.31,1.95,0.43c0.74,0.12,1.5,0.17,2.32,0.17c1.3,0,2.51-0.16,3.59-0.48
		c1.09-0.31,2.04-0.8,2.82-1.42c0.8-0.6,1.4-1.38,1.83-2.3c0.41-0.9,0.64-1.95,0.64-3.11C483.01,154.68,482.84,153.85,482.53,153.12
		z"/>
	<path class="st1" d="M40.31,19.32c-11.39,0-20.62,9.23-20.62,20.62v76.56c0,11.39,9.23,20.62,20.62,20.62h90.67
		c8.42,0,15.66-5.05,18.86-12.27c-2.07,0-3.77-0.09-5.12-0.21c-1.47-0.17-2.63-0.4-3.51-0.69c-0.88-0.29-1.49-0.67-1.81-1.12
		c-0.35-0.47-0.52-1-0.52-1.61V73.21c0-2.73-0.26-5.2-0.76-7.43c-0.5-2.25-1.28-4.18-2.32-5.77c-1.04-1.61-2.35-2.85-3.92-3.73
		c-1.57-0.86-3.46-1.31-5.65-1.31c-2.68,0-5.39,1.07-8.12,3.18c-2.75,2.13-5.7,5.2-8.92,9.26v53.82c0,0.6-0.19,1.14-0.55,1.61
		c-0.36,0.45-0.99,0.83-1.87,1.12c-0.88,0.29-2.06,0.52-3.51,0.69c-1.47,0.14-3.28,0.22-5.48,0.22c-2.25,0-4.1-0.09-5.57-0.22
		c-1.45-0.17-2.63-0.4-3.51-0.69c-0.88-0.29-1.5-0.67-1.87-1.12c-0.38-0.47-0.55-1-0.55-1.61V73.21c0-2.73-0.26-5.2-0.78-7.43
		c-0.52-2.25-1.3-4.18-2.33-5.77c-1.04-1.61-2.37-2.85-4.01-3.73c-1.64-0.86-3.56-1.31-5.76-1.31c-2.8,0-5.6,1.07-8.4,3.18
		c-2.8,2.13-5.81,5.2-9.04,9.26v53.82c0,0.6-0.19,1.14-0.55,1.61c-0.36,0.45-0.99,0.83-1.85,1.12c-0.88,0.29-2.06,0.52-3.51,0.69
		c-1.45,0.14-3.28,0.22-5.53,0.22c-2.25,0-4.1-0.09-5.55-0.22c-1.45-0.17-2.63-0.4-3.49-0.69c-0.88-0.29-1.5-0.67-1.87-1.12
		c-0.36-0.47-0.55-1-0.55-1.61V40.04c0-0.6,0.16-1.14,0.47-1.59c0.29-0.45,0.83-0.83,1.62-1.14c0.8-0.29,1.8-0.52,3.04-0.67
		c1.24-0.16,2.8-0.22,4.68-0.22c1.94,0,3.53,0.07,4.8,0.22c1.28,0.16,2.26,0.38,2.96,0.67c0.71,0.31,1.19,0.69,1.5,1.14
		c0.31,0.45,0.45,0.99,0.45,1.59v9.37c4.51-4.74,9-8.3,13.46-10.68c4.48-2.37,9.14-3.56,14.02-3.56c3.34,0,6.36,0.35,9.04,1.02
		c2.66,0.69,5.05,1.68,7.16,2.96s3.91,2.82,5.44,4.6c1.5,1.76,2.78,3.77,3.82,5.96c2.4-2.56,4.75-4.75,7.09-6.6
		c2.3-1.83,4.58-3.34,6.84-4.49c2.25-1.18,4.49-2.02,6.76-2.59c2.25-0.55,4.55-0.85,6.9-0.85c5.34,0,9.85,0.92,13.52,2.73
		c1.83,0.9,3.49,1.97,4.96,3.2v-1.16c0-11.39-9.23-20.62-20.62-20.62H40.31z"/>
</g>
<g>
	<path class="st1" d="M-703.64,446.55c-11.39,0-20.62,9.23-20.62,20.62v76.56c0,11.39,9.23,20.62,20.62,20.62h90.67
		c8.42,0,15.66-5.05,18.86-12.27c-2.07,0-3.77-0.09-5.12-0.21c-1.47-0.17-2.63-0.4-3.51-0.69c-0.88-0.29-1.49-0.67-1.81-1.12
		c-0.35-0.47-0.52-1-0.52-1.61v-48.01c0-2.73-0.26-5.2-0.76-7.43c-0.5-2.25-1.28-4.18-2.32-5.77c-1.04-1.61-2.35-2.85-3.92-3.73
		c-1.57-0.86-3.46-1.31-5.65-1.31c-2.68,0-5.39,1.07-8.12,3.18c-2.75,2.13-5.7,5.2-8.92,9.26v53.82c0,0.6-0.19,1.14-0.55,1.61
		c-0.36,0.45-0.99,0.83-1.87,1.12c-0.88,0.29-2.06,0.52-3.51,0.69c-1.47,0.14-3.28,0.22-5.48,0.22c-2.25,0-4.1-0.09-5.57-0.22
		c-1.45-0.17-2.63-0.4-3.51-0.69c-0.88-0.29-1.5-0.67-1.87-1.12c-0.38-0.47-0.55-1-0.55-1.61v-48.01c0-2.73-0.26-5.2-0.78-7.43
		c-0.52-2.25-1.3-4.18-2.33-5.77c-1.04-1.61-2.37-2.85-4.01-3.73c-1.64-0.86-3.56-1.31-5.76-1.31c-2.8,0-5.6,1.07-8.4,3.18
		c-2.8,2.13-5.81,5.2-9.04,9.26v53.82c0,0.6-0.19,1.14-0.55,1.61c-0.36,0.45-0.99,0.83-1.85,1.12c-0.88,0.29-2.06,0.52-3.51,0.69
		c-1.45,0.14-3.28,0.22-5.53,0.22c-2.25,0-4.1-0.09-5.55-0.22c-1.45-0.17-2.63-0.4-3.49-0.69c-0.88-0.29-1.5-0.67-1.87-1.12
		c-0.36-0.47-0.55-1-0.55-1.61v-81.18c0-0.6,0.16-1.14,0.47-1.59c0.29-0.45,0.83-0.83,1.62-1.14c0.79-0.29,1.8-0.52,3.04-0.67
		s2.8-0.22,4.68-0.22c1.94,0,3.53,0.07,4.8,0.22c1.28,0.16,2.26,0.38,2.96,0.67c0.71,0.31,1.19,0.69,1.5,1.14
		c0.31,0.45,0.45,0.99,0.45,1.59v9.37c4.51-4.74,9-8.3,13.46-10.68c4.48-2.37,9.14-3.56,14.02-3.56c3.34,0,6.36,0.35,9.04,1.02
		c2.66,0.69,5.05,1.68,7.16,2.96c2.11,1.28,3.91,2.82,5.44,4.6c1.5,1.76,2.78,3.77,3.82,5.96c2.4-2.56,4.75-4.75,7.09-6.6
		c2.3-1.83,4.58-3.34,6.84-4.49c2.25-1.18,4.49-2.02,6.76-2.59c2.25-0.55,4.55-0.85,6.9-0.85c5.34,0,9.85,0.92,13.52,2.73
		c1.83,0.9,3.49,1.97,4.96,3.2v-1.16c0-11.39-9.23-20.62-20.62-20.62H-703.64z"/>
	<g>
		<path class="st3" d="M-498.14,577.38l6.58-10.34c0.16-0.22,0.24-0.45,0.26-0.6c0.02-0.16-0.05-0.29-0.21-0.38
			c-0.14-0.09-0.38-0.16-0.69-0.19s-0.69-0.05-1.18-0.05c-0.47,0-0.81,0.02-1.07,0.03c-0.26,0.03-0.47,0.07-0.6,0.12
			c-0.14,0.07-0.26,0.14-0.35,0.22c-0.07,0.07-0.16,0.16-0.21,0.26l-5.22,8.28l-5.13-8.28c-0.07-0.1-0.16-0.21-0.22-0.29
			c-0.09-0.07-0.21-0.14-0.38-0.19c-0.16-0.05-0.4-0.09-0.69-0.12c-0.29-0.02-0.67-0.03-1.16-0.03c-0.54,0-0.97,0.02-1.3,0.05
			s-0.57,0.1-0.73,0.21c-0.16,0.12-0.22,0.24-0.22,0.4c0,0.17,0.07,0.36,0.21,0.57l6.65,10.44l-7.02,10.85
			c-0.16,0.22-0.24,0.41-0.24,0.57c-0.02,0.17,0.07,0.29,0.21,0.38c0.14,0.1,0.36,0.17,0.66,0.22c0.31,0.03,0.73,0.05,1.19,0.05
			s0.85-0.02,1.12-0.03c0.29-0.02,0.52-0.07,0.69-0.12c0.19-0.07,0.31-0.14,0.41-0.22c0.09-0.09,0.16-0.19,0.24-0.31l5.38-8.81
			l5.43,8.81c0.05,0.12,0.14,0.22,0.22,0.31c0.09,0.09,0.22,0.16,0.4,0.22c0.19,0.05,0.41,0.1,0.71,0.12
			c0.28,0.02,0.69,0.03,1.19,0.03c0.52,0,0.93-0.02,1.26-0.05c0.31-0.05,0.57-0.12,0.73-0.22c0.16-0.09,0.24-0.21,0.24-0.38
			c0-0.16-0.07-0.35-0.21-0.57L-498.14,577.38z"/>
		<path class="st3" d="M-446.17,580.91c-0.22,1.02-0.55,1.94-1,2.75c-0.47,0.83-1.05,1.49-1.8,1.97c-0.74,0.48-1.62,0.73-2.64,0.73
			c-1.12,0-2.19-0.33-3.2-1.04c-1.02-0.71-2.09-1.71-3.21-3.02v-9.06c0.64-0.78,1.26-1.43,1.85-1.97c0.57-0.54,1.12-0.97,1.66-1.3
			c0.54-0.31,1.05-0.55,1.57-0.71c0.52-0.16,1.04-0.22,1.57-0.22c1.05,0,1.95,0.24,2.66,0.74c0.71,0.48,1.28,1.14,1.71,1.95
			c0.41,0.83,0.73,1.76,0.9,2.82s0.26,2.16,0.26,3.28C-445.84,578.87-445.94,579.89-446.17,580.91z M-441.85,572.66
			c-0.35-1.47-0.88-2.77-1.59-3.89c-0.74-1.11-1.68-1.99-2.83-2.63c-1.16-0.64-2.56-0.97-4.18-0.97c-0.76,0-1.47,0.09-2.16,0.28
			c-0.67,0.17-1.35,0.43-1.99,0.78c-0.64,0.35-1.28,0.78-1.9,1.3c-0.66,0.54-1.31,1.14-1.99,1.85v-2.83c0-0.14-0.03-0.26-0.09-0.33
			c-0.05-0.09-0.16-0.17-0.29-0.22c-0.14-0.05-0.31-0.1-0.52-0.14c-0.22-0.02-0.48-0.03-0.81-0.03c-0.31,0-0.57,0.02-0.8,0.03
			c-0.21,0.03-0.38,0.09-0.52,0.16c-0.14,0.07-0.24,0.14-0.29,0.24c-0.03,0.09-0.07,0.21-0.07,0.35v31.78
			c0,0.14,0.03,0.26,0.09,0.36c0.05,0.09,0.16,0.17,0.29,0.24c0.16,0.07,0.36,0.12,0.6,0.16c0.24,0.03,0.55,0.05,0.93,0.05
			c0.38,0,0.71-0.02,0.95-0.05c0.24-0.03,0.45-0.09,0.59-0.16s0.24-0.16,0.29-0.26c0.07-0.1,0.1-0.22,0.1-0.36v-11.63
			c0.6,0.6,1.16,1.11,1.71,1.56c0.54,0.43,1.07,0.81,1.62,1.09c0.54,0.28,1.09,0.48,1.66,0.64c0.57,0.12,1.19,0.19,1.87,0.19
			c1.57,0,2.97-0.29,4.2-0.88c1.23-0.6,2.26-1.47,3.09-2.56c0.81-1.11,1.45-2.47,1.88-4.04c0.41-1.59,0.64-3.37,0.64-5.38
			C-441.35,575.71-441.52,574.15-441.85,572.66z"/>
		<path class="st3" d="M-397.36,566.84c-0.02-0.21-0.03-0.38-0.05-0.5c-0.03-0.12-0.07-0.21-0.1-0.29c-0.03-0.07-0.1-0.14-0.21-0.22
			c-0.1-0.09-0.29-0.16-0.55-0.24c-0.26-0.07-0.54-0.16-0.86-0.22c-0.31-0.07-0.6-0.12-0.9-0.14c-0.29-0.02-0.55-0.03-0.78-0.03
			c-0.52,0-1.04,0.07-1.54,0.21c-0.5,0.12-1,0.36-1.52,0.71c-0.5,0.35-1.05,0.81-1.62,1.42c-0.57,0.59-1.19,1.37-1.83,2.32v-3.25
			c0-0.12-0.03-0.22-0.09-0.31c-0.05-0.1-0.16-0.17-0.28-0.26c-0.12-0.07-0.31-0.12-0.52-0.16c-0.22-0.02-0.5-0.03-0.85-0.03
			c-0.36,0-0.66,0.02-0.88,0.03c-0.21,0.03-0.38,0.09-0.52,0.16c-0.14,0.09-0.24,0.16-0.28,0.26c-0.05,0.09-0.09,0.19-0.09,0.31
			v22.23c0,0.12,0.03,0.24,0.09,0.33c0.05,0.09,0.16,0.17,0.29,0.22c0.16,0.07,0.36,0.12,0.6,0.16c0.24,0.03,0.55,0.05,0.93,0.05
			c0.38,0,0.71-0.02,0.95-0.05c0.24-0.03,0.45-0.09,0.59-0.16c0.14-0.05,0.24-0.14,0.29-0.22c0.07-0.09,0.1-0.21,0.1-0.33v-14.62
			c0.62-0.97,1.19-1.78,1.71-2.44c0.5-0.66,1-1.19,1.47-1.59s0.92-0.69,1.35-0.86c0.43-0.17,0.86-0.26,1.31-0.26
			c0.36,0,0.71,0.03,1.04,0.1c0.31,0.07,0.6,0.14,0.86,0.21c0.26,0.07,0.48,0.14,0.69,0.22c0.19,0.09,0.38,0.12,0.52,0.12
			c0.16,0,0.26-0.03,0.35-0.12c0.07-0.09,0.14-0.19,0.19-0.33c0.05-0.14,0.09-0.33,0.1-0.59c0.02-0.24,0.03-0.55,0.03-0.9
			C-397.34,567.36-397.36,567.06-397.36,566.84z"/>
		<path class="st3" d="M-365.63,575.45c0.03-0.92,0.19-1.81,0.48-2.68c0.28-0.85,0.67-1.61,1.19-2.25s1.16-1.16,1.92-1.56
			c0.76-0.38,1.66-0.57,2.68-0.57c1.97,0,3.47,0.62,4.48,1.88c1,1.24,1.49,2.97,1.43,5.17H-365.63z M-349.59,576.05
			c0-1.5-0.19-2.9-0.55-4.22c-0.38-1.31-0.97-2.45-1.75-3.44c-0.81-0.99-1.81-1.76-3.04-2.35c-1.23-0.57-2.73-0.86-4.48-0.86
			c-1.64,0-3.11,0.29-4.42,0.86c-1.33,0.59-2.47,1.43-3.39,2.52c-0.95,1.09-1.66,2.4-2.16,3.98c-0.5,1.56-0.73,3.32-0.73,5.25
			c0,2.07,0.22,3.87,0.73,5.43c0.48,1.56,1.19,2.85,2.16,3.87c0.95,1.04,2.13,1.81,3.53,2.33c1.4,0.52,3.04,0.78,4.91,0.78
			c1.07,0,2.07-0.09,3.02-0.28c0.95-0.17,1.8-0.38,2.51-0.59c0.73-0.22,1.31-0.45,1.76-0.69c0.45-0.24,0.73-0.41,0.81-0.5
			c0.1-0.07,0.17-0.17,0.22-0.26c0.07-0.1,0.1-0.22,0.14-0.35c0.02-0.12,0.03-0.24,0.05-0.4c0.02-0.16,0.03-0.33,0.03-0.54
			c0-0.28-0.02-0.54-0.03-0.73c-0.03-0.21-0.07-0.36-0.12-0.47c-0.05-0.12-0.12-0.19-0.21-0.26c-0.1-0.05-0.21-0.09-0.31-0.09
			c-0.21,0-0.5,0.1-0.9,0.31c-0.38,0.19-0.88,0.41-1.49,0.66c-0.6,0.24-1.33,0.47-2.16,0.67c-0.85,0.19-1.78,0.28-2.85,0.28
			c-1.35,0-2.49-0.19-3.42-0.57c-0.95-0.4-1.69-0.95-2.28-1.69c-0.57-0.73-1-1.59-1.24-2.63c-0.26-1.02-0.38-2.16-0.38-3.44h14.47
			c0.41,0,0.78-0.14,1.09-0.43c0.33-0.28,0.48-0.74,0.48-1.4V576.05z"/>
		<path class="st3" d="M-305.59,580.36c-0.33-0.69-0.76-1.31-1.3-1.81c-0.55-0.5-1.16-0.93-1.87-1.28c-0.71-0.36-1.4-0.67-2.11-0.97
			c-0.73-0.28-1.43-0.57-2.13-0.83c-0.69-0.28-1.3-0.57-1.83-0.92c-0.55-0.35-0.99-0.73-1.31-1.19c-0.35-0.43-0.5-0.99-0.5-1.64
			c0-0.48,0.07-0.92,0.26-1.33c0.17-0.41,0.43-0.76,0.76-1.05c0.35-0.31,0.78-0.54,1.31-0.69c0.54-0.17,1.16-0.24,1.87-0.24
			c0.78,0,1.47,0.1,2.07,0.31c0.6,0.19,1.14,0.41,1.59,0.64c0.43,0.24,0.81,0.47,1.09,0.67c0.28,0.19,0.5,0.29,0.66,0.29
			c0.09,0,0.19-0.02,0.26-0.09c0.09-0.05,0.17-0.14,0.22-0.28c0.07-0.14,0.1-0.31,0.12-0.5c0.02-0.21,0.03-0.47,0.03-0.74
			c0-0.26-0.02-0.48-0.03-0.66c-0.02-0.19-0.05-0.35-0.07-0.47c-0.03-0.12-0.07-0.22-0.14-0.33c-0.05-0.1-0.16-0.22-0.33-0.38
			c-0.19-0.16-0.43-0.33-0.78-0.54c-0.35-0.19-0.74-0.38-1.23-0.55c-0.48-0.17-1.02-0.31-1.61-0.43c-0.6-0.12-1.19-0.17-1.78-0.17
			c-1.37,0-2.54,0.19-3.58,0.55c-1.02,0.38-1.85,0.86-2.54,1.49c-0.67,0.62-1.18,1.33-1.52,2.16c-0.35,0.81-0.5,1.66-0.5,2.56
			c0,1.02,0.16,1.88,0.48,2.61c0.35,0.73,0.78,1.35,1.33,1.87c0.54,0.52,1.16,0.97,1.85,1.33c0.69,0.36,1.4,0.69,2.13,0.97
			c0.71,0.29,1.42,0.57,2.09,0.83c0.69,0.26,1.3,0.55,1.85,0.9c0.54,0.35,0.99,0.73,1.31,1.16c0.33,0.45,0.5,0.99,0.5,1.62
			c0,0.64-0.12,1.21-0.35,1.68c-0.24,0.48-0.57,0.86-1,1.18c-0.43,0.31-0.93,0.54-1.5,0.69c-0.59,0.16-1.24,0.22-1.95,0.22
			c-0.97,0-1.81-0.09-2.56-0.29c-0.74-0.21-1.37-0.41-1.9-0.66c-0.55-0.24-1-0.47-1.37-0.66c-0.38-0.21-0.66-0.31-0.83-0.31
			c-0.12,0-0.24,0.03-0.33,0.09c-0.1,0.07-0.17,0.16-0.22,0.28c-0.05,0.14-0.09,0.29-0.12,0.5c-0.05,0.21-0.05,0.45-0.05,0.76
			c0,0.5,0.03,0.88,0.12,1.16c0.07,0.29,0.22,0.5,0.4,0.66c0.17,0.16,0.48,0.33,0.88,0.52c0.4,0.21,0.9,0.38,1.47,0.57
			c0.59,0.17,1.24,0.31,1.97,0.43c0.73,0.12,1.5,0.17,2.3,0.17c1.31,0,2.51-0.16,3.59-0.48c1.11-0.31,2.04-0.79,2.83-1.42
			c0.78-0.6,1.4-1.38,1.81-2.3c0.43-0.9,0.66-1.95,0.66-3.11C-305.09,581.91-305.26,581.08-305.59,580.36z"/>
		<path class="st3" d="M-261.41,580.36c-0.35-0.69-0.76-1.31-1.31-1.81c-0.54-0.5-1.16-0.93-1.87-1.28
			c-0.69-0.36-1.4-0.67-2.11-0.97c-0.73-0.28-1.42-0.57-2.11-0.83c-0.69-0.28-1.31-0.57-1.85-0.92c-0.54-0.35-0.97-0.73-1.31-1.19
			c-0.35-0.43-0.5-0.99-0.5-1.64c0-0.48,0.09-0.92,0.26-1.33c0.17-0.41,0.43-0.76,0.78-1.05c0.35-0.31,0.76-0.54,1.31-0.69
			c0.52-0.17,1.14-0.24,1.85-0.24c0.78,0,1.47,0.1,2.09,0.31c0.59,0.19,1.12,0.41,1.57,0.64c0.45,0.24,0.81,0.47,1.09,0.67
			c0.29,0.19,0.5,0.29,0.66,0.29c0.1,0,0.19-0.02,0.28-0.09c0.07-0.05,0.16-0.14,0.22-0.28c0.05-0.14,0.09-0.31,0.1-0.5
			c0.03-0.21,0.05-0.47,0.05-0.74c0-0.26-0.02-0.48-0.05-0.66c-0.02-0.19-0.03-0.35-0.07-0.47c-0.02-0.12-0.07-0.22-0.12-0.33
			c-0.07-0.1-0.17-0.22-0.35-0.38c-0.17-0.16-0.43-0.33-0.76-0.54c-0.35-0.19-0.76-0.38-1.24-0.55c-0.48-0.17-1-0.31-1.61-0.43
			c-0.59-0.12-1.19-0.17-1.78-0.17c-1.37,0-2.54,0.19-3.56,0.55c-1.02,0.38-1.87,0.86-2.54,1.49c-0.69,0.62-1.19,1.33-1.54,2.16
			c-0.33,0.81-0.5,1.66-0.5,2.56c0,1.02,0.17,1.88,0.5,2.61c0.33,0.73,0.76,1.35,1.31,1.87s1.18,0.97,1.87,1.33
			c0.67,0.36,1.38,0.69,2.11,0.97c0.73,0.29,1.42,0.57,2.11,0.83c0.67,0.26,1.3,0.55,1.83,0.9c0.55,0.35,0.99,0.73,1.31,1.16
			c0.35,0.45,0.5,0.99,0.5,1.62c0,0.64-0.12,1.21-0.35,1.68c-0.22,0.48-0.55,0.86-0.99,1.18c-0.43,0.31-0.93,0.54-1.52,0.69
			c-0.59,0.16-1.23,0.22-1.95,0.22c-0.97,0-1.8-0.09-2.54-0.29c-0.74-0.21-1.38-0.41-1.92-0.66c-0.54-0.24-1-0.47-1.37-0.66
			c-0.36-0.21-0.64-0.31-0.83-0.31c-0.12,0-0.22,0.03-0.31,0.09c-0.1,0.07-0.17,0.16-0.22,0.28c-0.07,0.14-0.1,0.29-0.14,0.5
			c-0.03,0.21-0.05,0.45-0.05,0.76c0,0.5,0.05,0.88,0.12,1.16c0.09,0.29,0.22,0.5,0.4,0.66c0.19,0.16,0.48,0.33,0.88,0.52
			c0.41,0.21,0.9,0.38,1.49,0.57c0.57,0.17,1.23,0.31,1.95,0.43c0.74,0.12,1.5,0.17,2.32,0.17c1.3,0,2.51-0.16,3.59-0.48
			c1.09-0.31,2.04-0.79,2.82-1.42c0.8-0.6,1.4-1.38,1.83-2.3c0.41-0.9,0.64-1.95,0.64-3.11
			C-260.93,581.91-261.1,581.08-261.41,580.36z"/>
	</g>
	<path class="st4" d="M-538.2,524.82c-0.83,3.34-2.14,6.22-3.92,8.62c-1.76,2.42-4.03,4.29-6.79,5.62c-2.77,1.33-6.03,2-9.8,2
		c-4.11,0-7.55-0.73-10.32-2.19c-2.77-1.45-4.98-3.42-6.62-5.93c-1.64-2.49-2.82-5.39-3.53-8.73c-0.71-3.34-1.05-6.9-1.05-10.7
		c0-3.96,0.43-7.6,1.3-10.94c0.86-3.34,2.18-6.22,3.96-8.66c1.76-2.44,4.03-4.32,6.76-5.67c2.75-1.33,6.01-1.99,9.83-1.99
		c4.11,0,7.55,0.73,10.32,2.19c2.77,1.47,4.96,3.46,6.58,5.96c1.61,2.51,2.78,5.44,3.47,8.78c0.71,3.34,1.05,6.86,1.05,10.61
		C-536.96,517.82-537.37,521.49-538.2,524.82z M-525.72,497.24c-1.43-4.65-3.56-8.59-6.43-11.84c-2.85-3.25-6.41-5.72-10.68-7.41
		c-4.29-1.71-9.3-2.56-15.05-2.56c-5.98,0-11.18,0.95-15.64,2.87c-4.46,1.9-8.17,4.58-11.16,8.04c-2.99,3.46-5.22,7.57-6.69,12.34
		s-2.21,9.97-2.21,15.64c0,5.88,0.69,11.15,2.09,15.78c1.4,4.65,3.53,8.59,6.38,11.84c2.85,3.23,6.43,5.72,10.7,7.41
		c4.29,1.69,9.3,2.56,15.07,2.56c5.89,0,11.1-0.97,15.59-2.9c4.48-1.92,8.21-4.61,11.2-8.07c2.97-3.46,5.22-7.57,6.72-12.34
		c1.5-4.77,2.26-9.99,2.26-15.66C-523.58,507.11-524.31,501.87-525.72,497.24z M-450.58,506.19c0-4.96-0.43-9.23-1.28-12.77
		c-0.86-3.54-2.26-6.64-4.22-9.3c-1.95-2.63-4.51-4.75-7.67-6.33c-3.16-1.57-7.07-2.37-11.7-2.37c-3.98,0-7.9,0.99-11.77,2.97
		c-3.89,1.99-7.79,5.12-11.7,9.38v-9.3c0-0.41-0.09-0.76-0.26-1.05c-0.19-0.29-0.48-0.55-0.9-0.78c-0.41-0.24-0.99-0.4-1.73-0.48
		c-0.74-0.07-1.69-0.1-2.82-0.1c-1.19,0-2.14,0.03-2.87,0.1c-0.71,0.09-1.31,0.24-1.76,0.48c-0.47,0.22-0.78,0.48-0.93,0.78
		c-0.16,0.29-0.22,0.64-0.22,1.05v70.36c0,0.41,0.09,0.76,0.26,1.05c0.19,0.29,0.52,0.54,1.02,0.74c0.48,0.21,1.14,0.36,1.97,0.47
		c0.81,0.1,1.85,0.16,3.08,0.16c1.28,0,2.33-0.05,3.16-0.16c0.81-0.1,1.45-0.26,1.94-0.47c0.45-0.21,0.8-0.45,1-0.74
		c0.19-0.28,0.29-0.64,0.29-1.05v-49.08c3.51-4.42,6.84-7.78,10.04-10.08c3.2-2.28,6.38-3.42,9.59-3.42c2.45,0,4.63,0.47,6.52,1.4
		c1.87,0.93,3.4,2.28,4.6,4.06c1.18,1.76,2.09,3.87,2.71,6.33c0.6,2.45,0.92,5.67,0.92,9.66v41.13c0,0.41,0.1,0.78,0.31,1.05
		c0.19,0.29,0.54,0.54,1,0.74c0.45,0.21,1.11,0.36,1.94,0.47c0.81,0.1,1.87,0.16,3.16,0.16c1.23,0,2.25-0.05,3.08-0.16
		c0.81-0.1,1.47-0.26,1.94-0.47c0.45-0.21,0.8-0.45,1-0.73c0.19-0.28,0.31-0.64,0.31-1.05V506.19z M-360.63,541.14
		c-0.1-0.64-0.22-1.12-0.36-1.49c-0.14-0.36-0.31-0.62-0.55-0.76c-0.24-0.14-0.48-0.21-0.73-0.21c-0.43,0-0.9,0.12-1.42,0.36
		c-0.54,0.24-1.18,0.48-1.9,0.74c-0.73,0.28-1.57,0.52-2.51,0.76c-0.95,0.24-2.02,0.35-3.23,0.35c-3.72,0-6.31-1.24-7.74-3.73
		c-1.43-2.49-2.16-6.19-2.16-11.08v-39.56h18.16c0.78,0,1.4-0.43,1.88-1.3c0.47-0.85,0.71-2.25,0.71-4.17
		c0-1.02-0.07-1.88-0.16-2.58c-0.1-0.69-0.28-1.26-0.52-1.73c-0.24-0.45-0.52-0.78-0.83-0.97c-0.31-0.17-0.67-0.28-1.09-0.28h-18.16
		v-16.9c0-0.36-0.1-0.71-0.31-1.02c-0.21-0.33-0.55-0.59-1.02-0.83c-0.48-0.24-1.14-0.41-1.97-0.52c-0.83-0.09-1.92-0.16-3.21-0.16
		c-1.26,0-2.32,0.07-3.15,0.16c-0.85,0.1-1.5,0.28-2,0.52s-0.85,0.5-1.02,0.83c-0.19,0.31-0.28,0.66-0.28,1.02v16.9h-9.7
		c-0.41,0-0.78,0.1-1.12,0.28c-0.35,0.19-0.6,0.52-0.81,0.97c-0.21,0.47-0.38,1.04-0.5,1.73c-0.12,0.69-0.19,1.56-0.19,2.58
		c0,1.92,0.22,3.32,0.69,4.17c0.47,0.86,1.09,1.3,1.87,1.3h9.76v41.39c0,4.08,0.38,7.64,1.14,10.66c0.76,3.01,1.97,5.51,3.65,7.47
		c1.68,1.97,3.82,3.44,6.45,4.41c2.61,0.97,5.77,1.45,9.44,1.45c1.21,0,2.4-0.09,3.61-0.22c1.21-0.17,2.35-0.36,3.42-0.59
		c1.07-0.24,2.04-0.54,2.87-0.92c0.83-0.36,1.47-0.74,1.88-1.16s0.74-1.05,0.95-1.95c0.21-0.88,0.31-2.07,0.31-3.59
		C-360.48,542.56-360.55,541.76-360.63,541.14z M-297.93,524.82c-0.83,3.34-2.14,6.22-3.92,8.62c-1.76,2.42-4.03,4.29-6.79,5.62
		c-2.77,1.33-6.03,2-9.78,2c-4.13,0-7.57-0.73-10.34-2.19c-2.77-1.45-4.98-3.42-6.62-5.93c-1.64-2.49-2.82-5.39-3.51-8.73
		c-0.71-3.34-1.05-6.9-1.05-10.7c0-3.96,0.41-7.6,1.28-10.94c0.86-3.34,2.18-6.22,3.96-8.66c1.76-2.44,4.03-4.32,6.77-5.67
		c2.73-1.33,6-1.99,9.82-1.99c4.11,0,7.55,0.73,10.32,2.19c2.77,1.47,4.98,3.46,6.58,5.96c1.62,2.51,2.78,5.44,3.49,8.78
		c0.69,3.34,1.05,6.86,1.05,10.61C-296.67,517.82-297.08,521.49-297.93,524.82z M-285.45,497.24c-1.43-4.65-3.56-8.59-6.41-11.84
		c-2.87-3.25-6.43-5.72-10.7-7.41c-4.27-1.71-9.3-2.56-15.05-2.56c-5.96,0-11.18,0.95-15.64,2.87c-4.46,1.9-8.17,4.58-11.16,8.04
		c-2.97,3.46-5.2,7.57-6.67,12.34c-1.49,4.77-2.23,9.97-2.23,15.64c0,5.88,0.69,11.15,2.11,15.78c1.38,4.65,3.51,8.59,6.36,11.84
		c2.87,3.23,6.43,5.72,10.72,7.41c4.27,1.69,9.3,2.56,15.05,2.56c5.91,0,11.1-0.97,15.59-2.9c4.48-1.92,8.21-4.61,11.2-8.07
		c2.97-3.46,5.22-7.57,6.72-12.34s2.26-9.99,2.26-15.66C-283.31,507.11-284.02,501.87-285.45,497.24z M-233.59,480.67
		c-0.03-0.71-0.09-1.23-0.17-1.59c-0.07-0.36-0.16-0.66-0.26-0.9c-0.1-0.22-0.31-0.47-0.62-0.73s-0.85-0.52-1.59-0.78
		c-0.76-0.26-1.59-0.5-2.52-0.71s-1.81-0.35-2.68-0.41c-0.85-0.09-1.61-0.12-2.28-0.12c-1.5,0-2.99,0.19-4.46,0.55
		c-1.47,0.38-2.96,1.07-4.46,2.06s-3.09,2.32-4.77,4.04c-1.68,1.71-3.47,3.92-5.39,6.64v-10.23c0-0.41-0.09-0.76-0.26-1.05
		c-0.19-0.29-0.48-0.55-0.88-0.78c-0.43-0.24-1-0.4-1.75-0.48c-0.74-0.07-1.68-0.1-2.82-0.1c-1.19,0-2.14,0.03-2.87,0.1
		c-0.71,0.09-1.31,0.24-1.76,0.48c-0.47,0.22-0.76,0.48-0.93,0.78c-0.16,0.29-0.22,0.64-0.22,1.05v70.36c0,0.41,0.09,0.76,0.28,1.05
		c0.17,0.29,0.5,0.54,1,0.74c0.48,0.21,1.14,0.36,1.97,0.47c0.81,0.1,1.85,0.16,3.08,0.16c1.28,0,2.33-0.05,3.16-0.16
		c0.81-0.1,1.47-0.26,1.94-0.47c0.45-0.21,0.8-0.45,1-0.74c0.19-0.29,0.31-0.64,0.31-1.05v-46.28c1.8-2.8,3.46-5.17,4.96-7.09
		c1.49-1.94,2.94-3.49,4.3-4.67s2.68-2,3.92-2.51c1.23-0.52,2.51-0.78,3.79-0.78c1.09,0,2.09,0.12,3.02,0.31
		c0.93,0.21,1.78,0.43,2.54,0.66c0.74,0.24,1.42,0.47,2,0.71c0.6,0.24,1.11,0.35,1.52,0.35c0.4,0,0.73-0.1,0.97-0.35
		c0.22-0.24,0.41-0.57,0.59-1.02c0.14-0.43,0.24-1.04,0.29-1.81s0.09-1.73,0.09-2.87C-233.55,482.31-233.57,481.36-233.59,480.67z
		 M-419.02,457.7c-1.12-1.07-3.23-1.61-6.29-1.61c-3.13,0-5.27,0.55-6.43,1.64c-1.18,1.09-1.75,3.15-1.75,6.17
		c0,2.97,0.57,4.99,1.69,6.05c1.14,1.07,3.23,1.61,6.31,1.61c3.11,0,5.27-0.55,6.43-1.64c1.16-1.09,1.75-3.15,1.75-6.17
		C-417.31,460.77-417.88,458.75-419.02,457.7z M-419.24,477.49c0-0.36-0.12-0.71-0.31-1.04c-0.22-0.31-0.57-0.57-1.04-0.78
		s-1.12-0.38-1.95-0.48c-0.85-0.09-1.92-0.16-3.21-0.16c-1.26,0-2.3,0.07-3.13,0.16c-0.85,0.1-1.52,0.28-2,0.48
		c-0.5,0.21-0.85,0.47-1.02,0.78c-0.19,0.33-0.28,0.67-0.28,1.04v71.97c0,0.43,0.09,0.78,0.28,1.07c0.17,0.29,0.52,0.55,1.02,0.76
		c0.48,0.21,1.16,0.36,2,0.47c0.83,0.1,1.87,0.16,3.13,0.16c1.3,0,2.37-0.05,3.21-0.16c0.83-0.1,1.49-0.26,1.95-0.47
		s0.81-0.47,1.04-0.76c0.19-0.29,0.31-0.64,0.31-1.07V477.49z"/>
	<path class="st1" d="M-498.14,577.38l6.58-10.34c0.16-0.22,0.24-0.45,0.26-0.6c0.02-0.16-0.05-0.29-0.21-0.38
		c-0.14-0.09-0.38-0.16-0.69-0.19s-0.69-0.05-1.18-0.05c-0.47,0-0.81,0.02-1.07,0.03c-0.26,0.03-0.47,0.07-0.6,0.12
		c-0.14,0.07-0.26,0.14-0.35,0.22c-0.07,0.07-0.16,0.16-0.21,0.26l-5.22,8.28l-5.13-8.28c-0.07-0.1-0.16-0.21-0.22-0.29
		c-0.09-0.07-0.21-0.14-0.38-0.19c-0.16-0.05-0.4-0.09-0.69-0.12c-0.29-0.02-0.67-0.03-1.16-0.03c-0.54,0-0.97,0.02-1.3,0.05
		s-0.57,0.1-0.73,0.21c-0.16,0.12-0.22,0.24-0.22,0.4c0,0.17,0.07,0.36,0.21,0.57l6.65,10.44l-7.02,10.85
		c-0.16,0.22-0.24,0.41-0.24,0.57c-0.02,0.17,0.07,0.29,0.21,0.38c0.14,0.1,0.36,0.17,0.66,0.22c0.31,0.03,0.73,0.05,1.19,0.05
		s0.85-0.02,1.12-0.03c0.29-0.02,0.52-0.07,0.69-0.12c0.19-0.07,0.31-0.14,0.41-0.22c0.09-0.09,0.16-0.19,0.24-0.31l5.38-8.81
		l5.43,8.81c0.05,0.12,0.14,0.22,0.22,0.31c0.09,0.09,0.22,0.16,0.4,0.22c0.19,0.05,0.41,0.1,0.71,0.12
		c0.28,0.02,0.69,0.03,1.19,0.03c0.52,0,0.93-0.02,1.26-0.05c0.31-0.05,0.57-0.12,0.73-0.22c0.16-0.09,0.24-0.21,0.24-0.38
		c0-0.16-0.07-0.35-0.21-0.57L-498.14,577.38z M-446.17,580.91c-0.22,1.02-0.55,1.94-1,2.75c-0.47,0.83-1.05,1.49-1.8,1.97
		c-0.74,0.48-1.62,0.73-2.64,0.73c-1.12,0-2.19-0.33-3.2-1.04c-1.02-0.71-2.09-1.71-3.21-3.02v-9.06c0.64-0.78,1.26-1.43,1.85-1.97
		c0.57-0.54,1.12-0.97,1.66-1.3c0.54-0.31,1.05-0.55,1.57-0.71c0.52-0.16,1.04-0.22,1.57-0.22c1.05,0,1.95,0.24,2.66,0.74
		c0.71,0.48,1.28,1.14,1.71,1.95c0.41,0.83,0.73,1.76,0.9,2.82s0.26,2.16,0.26,3.28C-445.84,578.87-445.94,579.89-446.17,580.91z
		 M-441.85,572.66c-0.35-1.47-0.88-2.77-1.59-3.89c-0.74-1.11-1.68-1.99-2.83-2.63c-1.16-0.64-2.56-0.97-4.18-0.97
		c-0.76,0-1.47,0.09-2.16,0.28c-0.67,0.17-1.35,0.43-1.99,0.78c-0.64,0.35-1.28,0.78-1.9,1.3c-0.66,0.54-1.31,1.14-1.99,1.85v-2.83
		c0-0.14-0.03-0.26-0.09-0.33c-0.05-0.09-0.16-0.17-0.29-0.22c-0.14-0.05-0.31-0.1-0.52-0.14c-0.22-0.02-0.48-0.03-0.81-0.03
		c-0.31,0-0.57,0.02-0.8,0.03c-0.21,0.03-0.38,0.09-0.52,0.16c-0.14,0.07-0.24,0.14-0.29,0.24c-0.03,0.09-0.07,0.21-0.07,0.35v31.78
		c0,0.14,0.03,0.26,0.09,0.36c0.05,0.09,0.16,0.17,0.29,0.24c0.16,0.07,0.36,0.12,0.6,0.16c0.24,0.03,0.55,0.05,0.93,0.05
		c0.38,0,0.71-0.02,0.95-0.05c0.24-0.03,0.45-0.09,0.59-0.16s0.24-0.16,0.29-0.26c0.07-0.1,0.1-0.22,0.1-0.36v-11.63
		c0.6,0.6,1.16,1.11,1.71,1.56c0.54,0.43,1.07,0.81,1.62,1.09c0.54,0.28,1.09,0.48,1.66,0.64c0.57,0.12,1.19,0.19,1.87,0.19
		c1.57,0,2.97-0.29,4.2-0.88c1.23-0.6,2.26-1.47,3.09-2.56c0.81-1.11,1.45-2.47,1.88-4.04c0.41-1.59,0.64-3.37,0.64-5.38
		C-441.35,575.71-441.52,574.15-441.85,572.66z M-397.36,566.84c-0.02-0.21-0.03-0.38-0.05-0.5c-0.03-0.12-0.07-0.21-0.1-0.29
		c-0.03-0.07-0.1-0.14-0.21-0.22c-0.1-0.09-0.29-0.16-0.55-0.24c-0.26-0.07-0.54-0.16-0.86-0.22c-0.31-0.07-0.6-0.12-0.9-0.14
		c-0.29-0.02-0.55-0.03-0.78-0.03c-0.52,0-1.04,0.07-1.54,0.21c-0.5,0.12-1,0.36-1.52,0.71c-0.5,0.35-1.05,0.81-1.62,1.42
		c-0.57,0.59-1.19,1.37-1.83,2.32v-3.25c0-0.12-0.03-0.22-0.09-0.31c-0.05-0.1-0.16-0.17-0.28-0.26c-0.12-0.07-0.31-0.12-0.52-0.16
		c-0.22-0.02-0.5-0.03-0.85-0.03c-0.36,0-0.66,0.02-0.88,0.03c-0.21,0.03-0.38,0.09-0.52,0.16c-0.14,0.09-0.24,0.16-0.28,0.26
		c-0.05,0.09-0.09,0.19-0.09,0.31v22.23c0,0.12,0.03,0.24,0.09,0.33c0.05,0.09,0.16,0.17,0.29,0.22c0.16,0.07,0.36,0.12,0.6,0.16
		c0.24,0.03,0.55,0.05,0.93,0.05c0.38,0,0.71-0.02,0.95-0.05c0.24-0.03,0.45-0.09,0.59-0.16c0.14-0.05,0.24-0.14,0.29-0.22
		c0.07-0.09,0.1-0.21,0.1-0.33v-14.62c0.62-0.97,1.19-1.78,1.71-2.44c0.5-0.66,1-1.19,1.47-1.59s0.92-0.69,1.35-0.86
		c0.43-0.17,0.86-0.26,1.31-0.26c0.36,0,0.71,0.03,1.04,0.1c0.31,0.07,0.6,0.14,0.86,0.21c0.26,0.07,0.48,0.14,0.69,0.22
		c0.19,0.09,0.38,0.12,0.52,0.12c0.16,0,0.26-0.03,0.35-0.12c0.07-0.09,0.14-0.19,0.19-0.33c0.05-0.14,0.09-0.33,0.1-0.59
		c0.02-0.24,0.03-0.55,0.03-0.9C-397.34,567.36-397.36,567.06-397.36,566.84z M-365.63,575.45c0.03-0.92,0.19-1.81,0.48-2.68
		c0.28-0.85,0.67-1.61,1.19-2.25s1.16-1.16,1.92-1.56c0.76-0.38,1.66-0.57,2.68-0.57c1.97,0,3.47,0.62,4.48,1.88
		c1,1.24,1.49,2.97,1.43,5.17H-365.63z M-349.59,576.05c0-1.5-0.19-2.9-0.55-4.22c-0.38-1.31-0.97-2.45-1.75-3.44
		c-0.81-0.99-1.81-1.76-3.04-2.35c-1.23-0.57-2.73-0.86-4.48-0.86c-1.64,0-3.11,0.29-4.42,0.86c-1.33,0.59-2.47,1.43-3.39,2.52
		c-0.95,1.09-1.66,2.4-2.16,3.98c-0.5,1.56-0.73,3.32-0.73,5.25c0,2.07,0.22,3.87,0.73,5.43c0.48,1.56,1.19,2.85,2.16,3.87
		c0.95,1.04,2.13,1.81,3.53,2.33c1.4,0.52,3.04,0.78,4.91,0.78c1.07,0,2.07-0.09,3.02-0.28c0.95-0.17,1.8-0.38,2.51-0.59
		c0.73-0.22,1.31-0.45,1.76-0.69c0.45-0.24,0.73-0.41,0.81-0.5c0.1-0.07,0.17-0.17,0.22-0.26c0.07-0.1,0.1-0.22,0.14-0.35
		c0.02-0.12,0.03-0.24,0.05-0.4c0.02-0.16,0.03-0.33,0.03-0.54c0-0.28-0.02-0.54-0.03-0.73c-0.03-0.21-0.07-0.36-0.12-0.47
		c-0.05-0.12-0.12-0.19-0.21-0.26c-0.1-0.05-0.21-0.09-0.31-0.09c-0.21,0-0.5,0.1-0.9,0.31c-0.38,0.19-0.88,0.41-1.49,0.66
		c-0.6,0.24-1.33,0.47-2.16,0.67c-0.85,0.19-1.78,0.28-2.85,0.28c-1.35,0-2.49-0.19-3.42-0.57c-0.95-0.4-1.69-0.95-2.28-1.69
		c-0.57-0.73-1-1.59-1.24-2.63c-0.26-1.02-0.38-2.16-0.38-3.44h14.47c0.41,0,0.78-0.14,1.09-0.43c0.33-0.28,0.48-0.74,0.48-1.4
		V576.05z M-305.59,580.36c-0.33-0.69-0.76-1.31-1.3-1.81c-0.55-0.5-1.16-0.93-1.87-1.28c-0.71-0.36-1.4-0.67-2.11-0.97
		c-0.73-0.28-1.43-0.57-2.13-0.83c-0.69-0.28-1.3-0.57-1.83-0.92c-0.55-0.35-0.99-0.73-1.31-1.19c-0.35-0.43-0.5-0.99-0.5-1.64
		c0-0.48,0.07-0.92,0.26-1.33c0.17-0.41,0.43-0.76,0.76-1.05c0.35-0.31,0.78-0.54,1.31-0.69c0.54-0.17,1.16-0.24,1.87-0.24
		c0.78,0,1.47,0.1,2.07,0.31c0.6,0.19,1.14,0.41,1.59,0.64c0.43,0.24,0.81,0.47,1.09,0.67c0.28,0.19,0.5,0.29,0.66,0.29
		c0.09,0,0.19-0.02,0.26-0.09c0.09-0.05,0.17-0.14,0.22-0.28c0.07-0.14,0.1-0.31,0.12-0.5c0.02-0.21,0.03-0.47,0.03-0.74
		c0-0.26-0.02-0.48-0.03-0.66c-0.02-0.19-0.05-0.35-0.07-0.47c-0.03-0.12-0.07-0.22-0.14-0.33c-0.05-0.1-0.16-0.22-0.33-0.38
		c-0.19-0.16-0.43-0.33-0.78-0.54c-0.35-0.19-0.74-0.38-1.23-0.55c-0.48-0.17-1.02-0.31-1.61-0.43c-0.6-0.12-1.19-0.17-1.78-0.17
		c-1.37,0-2.54,0.19-3.58,0.55c-1.02,0.38-1.85,0.86-2.54,1.49c-0.67,0.62-1.18,1.33-1.52,2.16c-0.35,0.81-0.5,1.66-0.5,2.56
		c0,1.02,0.16,1.88,0.48,2.61c0.35,0.73,0.78,1.35,1.33,1.87c0.54,0.52,1.16,0.97,1.85,1.33c0.69,0.36,1.4,0.69,2.13,0.97
		c0.71,0.29,1.42,0.57,2.09,0.83c0.69,0.26,1.3,0.55,1.85,0.9c0.54,0.35,0.99,0.73,1.31,1.16c0.33,0.45,0.5,0.99,0.5,1.62
		c0,0.64-0.12,1.21-0.35,1.68c-0.24,0.48-0.57,0.86-1,1.18c-0.43,0.31-0.93,0.54-1.5,0.69c-0.59,0.16-1.24,0.22-1.95,0.22
		c-0.97,0-1.81-0.09-2.56-0.29c-0.74-0.21-1.37-0.41-1.9-0.66c-0.55-0.24-1-0.47-1.37-0.66c-0.38-0.21-0.66-0.31-0.83-0.31
		c-0.12,0-0.24,0.03-0.33,0.09c-0.1,0.07-0.17,0.16-0.22,0.28c-0.05,0.14-0.09,0.29-0.12,0.5c-0.05,0.21-0.05,0.45-0.05,0.76
		c0,0.5,0.03,0.88,0.12,1.16c0.07,0.29,0.22,0.5,0.4,0.66c0.17,0.16,0.48,0.33,0.88,0.52c0.4,0.21,0.9,0.38,1.47,0.57
		c0.59,0.17,1.24,0.31,1.97,0.43c0.73,0.12,1.5,0.17,2.3,0.17c1.31,0,2.51-0.16,3.59-0.48c1.11-0.31,2.04-0.79,2.83-1.42
		c0.78-0.6,1.4-1.38,1.81-2.3c0.43-0.9,0.66-1.95,0.66-3.11C-305.09,581.91-305.26,581.08-305.59,580.36z M-261.41,580.36
		c-0.35-0.69-0.76-1.31-1.31-1.81c-0.54-0.5-1.16-0.93-1.87-1.28c-0.69-0.36-1.4-0.67-2.11-0.97c-0.73-0.28-1.42-0.57-2.11-0.83
		c-0.69-0.28-1.31-0.57-1.85-0.92c-0.54-0.35-0.97-0.73-1.31-1.19c-0.35-0.43-0.5-0.99-0.5-1.64c0-0.48,0.09-0.92,0.26-1.33
		c0.17-0.41,0.43-0.76,0.78-1.05c0.35-0.31,0.76-0.54,1.31-0.69c0.52-0.17,1.14-0.24,1.85-0.24c0.78,0,1.47,0.1,2.09,0.31
		c0.59,0.19,1.12,0.41,1.57,0.64c0.45,0.24,0.81,0.47,1.09,0.67c0.29,0.19,0.5,0.29,0.66,0.29c0.1,0,0.19-0.02,0.28-0.09
		c0.07-0.05,0.16-0.14,0.22-0.28c0.05-0.14,0.09-0.31,0.1-0.5c0.03-0.21,0.05-0.47,0.05-0.74c0-0.26-0.02-0.48-0.05-0.66
		c-0.02-0.19-0.03-0.35-0.07-0.47c-0.02-0.12-0.07-0.22-0.12-0.33c-0.07-0.1-0.17-0.22-0.35-0.38c-0.17-0.16-0.43-0.33-0.76-0.54
		c-0.35-0.19-0.76-0.38-1.24-0.55c-0.48-0.17-1-0.31-1.61-0.43c-0.59-0.12-1.19-0.17-1.78-0.17c-1.37,0-2.54,0.19-3.56,0.55
		c-1.02,0.38-1.87,0.86-2.54,1.49c-0.69,0.62-1.19,1.33-1.54,2.16c-0.33,0.81-0.5,1.66-0.5,2.56c0,1.02,0.17,1.88,0.5,2.61
		c0.33,0.73,0.76,1.35,1.31,1.87s1.18,0.97,1.87,1.33c0.67,0.36,1.38,0.69,2.11,0.97c0.73,0.29,1.42,0.57,2.11,0.83
		c0.67,0.26,1.3,0.55,1.83,0.9c0.55,0.35,0.99,0.73,1.31,1.16c0.35,0.45,0.5,0.99,0.5,1.62c0,0.64-0.12,1.21-0.35,1.68
		c-0.22,0.48-0.55,0.86-0.99,1.18c-0.43,0.31-0.93,0.54-1.52,0.69c-0.59,0.16-1.23,0.22-1.95,0.22c-0.97,0-1.8-0.09-2.54-0.29
		c-0.74-0.21-1.38-0.41-1.92-0.66c-0.54-0.24-1-0.47-1.37-0.66c-0.36-0.21-0.64-0.31-0.83-0.31c-0.12,0-0.22,0.03-0.31,0.09
		c-0.1,0.07-0.17,0.16-0.22,0.28c-0.07,0.14-0.1,0.29-0.14,0.5c-0.03,0.21-0.05,0.45-0.05,0.76c0,0.5,0.05,0.88,0.12,1.16
		c0.09,0.29,0.22,0.5,0.4,0.66c0.19,0.16,0.48,0.33,0.88,0.52c0.41,0.21,0.9,0.38,1.49,0.57c0.57,0.17,1.23,0.31,1.95,0.43
		c0.74,0.12,1.5,0.17,2.32,0.17c1.3,0,2.51-0.16,3.59-0.48c1.09-0.31,2.04-0.79,2.82-1.42c0.8-0.6,1.4-1.38,1.83-2.3
		c0.41-0.9,0.64-1.95,0.64-3.11C-260.93,581.91-261.1,581.08-261.41,580.36z"/>
	<path class="st1" d="M-703.64,446.55c-11.39,0-20.62,9.23-20.62,20.62v76.56c0,11.39,9.23,20.62,20.62,20.62h90.67
		c8.42,0,15.66-5.05,18.86-12.27c-2.07,0-3.77-0.09-5.12-0.21c-1.47-0.17-2.63-0.4-3.51-0.69c-0.88-0.29-1.49-0.67-1.81-1.12
		c-0.35-0.47-0.52-1-0.52-1.61v-48.01c0-2.73-0.26-5.2-0.76-7.43c-0.5-2.25-1.28-4.18-2.32-5.77c-1.04-1.61-2.35-2.85-3.92-3.73
		c-1.57-0.86-3.46-1.31-5.65-1.31c-2.68,0-5.39,1.07-8.12,3.18c-2.75,2.13-5.7,5.2-8.92,9.26v53.82c0,0.6-0.19,1.14-0.55,1.61
		c-0.36,0.45-0.99,0.83-1.87,1.12c-0.88,0.29-2.06,0.52-3.51,0.69c-1.47,0.14-3.28,0.22-5.48,0.22c-2.25,0-4.1-0.09-5.57-0.22
		c-1.45-0.17-2.63-0.4-3.51-0.69c-0.88-0.29-1.5-0.67-1.87-1.12c-0.38-0.47-0.55-1-0.55-1.61v-48.01c0-2.73-0.26-5.2-0.78-7.43
		c-0.52-2.25-1.3-4.18-2.33-5.77c-1.04-1.61-2.37-2.85-4.01-3.73c-1.64-0.86-3.56-1.31-5.76-1.31c-2.8,0-5.6,1.07-8.4,3.18
		c-2.8,2.13-5.81,5.2-9.04,9.26v53.82c0,0.6-0.19,1.14-0.55,1.61c-0.36,0.45-0.99,0.83-1.85,1.12c-0.88,0.29-2.06,0.52-3.51,0.69
		c-1.45,0.14-3.28,0.22-5.53,0.22c-2.25,0-4.1-0.09-5.55-0.22c-1.45-0.17-2.63-0.4-3.49-0.69c-0.88-0.29-1.5-0.67-1.87-1.12
		c-0.36-0.47-0.55-1-0.55-1.61v-81.18c0-0.6,0.16-1.14,0.47-1.59c0.29-0.45,0.83-0.83,1.62-1.14c0.79-0.29,1.8-0.52,3.04-0.67
		s2.8-0.22,4.68-0.22c1.94,0,3.53,0.07,4.8,0.22c1.28,0.16,2.26,0.38,2.96,0.67c0.71,0.31,1.19,0.69,1.5,1.14
		c0.31,0.45,0.45,0.99,0.45,1.59v9.37c4.51-4.74,9-8.3,13.46-10.68c4.48-2.37,9.14-3.56,14.02-3.56c3.34,0,6.36,0.35,9.04,1.02
		c2.66,0.69,5.05,1.68,7.16,2.96c2.11,1.28,3.91,2.82,5.44,4.6c1.5,1.76,2.78,3.77,3.82,5.96c2.4-2.56,4.75-4.75,7.09-6.6
		c2.3-1.83,4.58-3.34,6.84-4.49c2.25-1.18,4.49-2.02,6.76-2.59c2.25-0.55,4.55-0.85,6.9-0.85c5.34,0,9.85,0.92,13.52,2.73
		c1.83,0.9,3.49,1.97,4.96,3.2v-1.16c0-11.39-9.23-20.62-20.62-20.62H-703.64z"/>
</g>
</svg>
